﻿Log file open, 04/30/21 20:28:46
LogInit: LLM is enabled
LogInit: LLM CsvWriter: off TraceWriter: off
LogInit: Display: Running engine for game: TopDown
LogPlatformFile: Not using cached read wrapper
LogTaskGraph: Started task graph with 5 named threads and 35 total threads with 3 sets of task threads.
LogStats: Stats thread started at 0.216860
LogD3D11RHI: Loaded GFSDK_Aftermath_Lib.x64.dll
LogICUInternationalization: ICU TimeZone Detection - Raw Offset: +3:00, Platform Override: ''
LogPluginManager: Mounting plugin MegascansPlugin
LogPluginManager: Mounting plugin MeshPainting
LogPluginManager: Mounting plugin XGEController
LogPluginManager: Mounting plugin EnvironmentQueryEditor
LogPluginManager: Mounting plugin Paper2D
LogPluginManager: Mounting plugin AISupport
LogPluginManager: Mounting plugin LightPropagationVolume
LogPluginManager: Mounting plugin AnimationSharing
LogPluginManager: Mounting plugin CodeLiteSourceCodeAccess
LogPluginManager: Mounting plugin CLionSourceCodeAccess
LogPluginManager: Mounting plugin GitSourceControl
LogPluginManager: Mounting plugin KDevelopSourceCodeAccess
LogPluginManager: Mounting plugin NullSourceCodeAccess
LogPluginManager: Mounting plugin PluginUtils
LogPluginManager: Mounting plugin PlasticSourceControl
LogPluginManager: Mounting plugin PerforceSourceControl
LogPluginManager: Mounting plugin RiderSourceCodeAccess
LogPluginManager: Mounting plugin SubversionSourceControl
LogPluginManager: Mounting plugin PropertyAccessNode
LogPluginManager: Mounting plugin VisualStudioCodeSourceCodeAccess
LogPluginManager: Mounting plugin UObjectPlugin
LogPluginManager: Mounting plugin VisualStudioSourceCodeAccess
LogPluginManager: Mounting plugin XCodeSourceCodeAccess
LogPluginManager: Mounting plugin CameraShakePreviewer
LogPluginManager: Mounting plugin DatasmithContent
LogPluginManager: Mounting plugin Niagara
LogPluginManager: Mounting plugin VariantManagerContent
LogPluginManager: Mounting plugin AlembicImporter
LogPluginManager: Mounting plugin AutomationUtils
LogPluginManager: Mounting plugin BackChannel
LogPluginManager: Mounting plugin ChaosCloth
LogPluginManager: Mounting plugin ChaosNiagara
LogPluginManager: Mounting plugin ChaosSolverPlugin
LogPluginManager: Mounting plugin ChaosEditor
LogPluginManager: Mounting plugin ChaosClothEditor
LogPluginManager: Mounting plugin CharacterAI
LogPluginManager: Mounting plugin LuminPlatformFeatures
LogPluginManager: Mounting plugin GeometryCache
LogPluginManager: Mounting plugin MagicLeap
LogPluginManager: Mounting plugin MagicLeapMedia
LogPluginManager: Mounting plugin MagicLeapLightEstimation
LogPluginManager: Mounting plugin MagicLeapPassableWorld
LogPluginManager: Mounting plugin MLSDK
LogPluginManager: Mounting plugin AndroidMedia
LogPluginManager: Mounting plugin AvfMedia
LogPluginManager: Mounting plugin MediaCompositing
LogPluginManager: Mounting plugin ImgMedia
LogPluginManager: Mounting plugin MediaPlayerEditor
LogPluginManager: Mounting plugin WebMMedia
LogPluginManager: Mounting plugin WmfMedia
LogPluginManager: Mounting plugin GeometryCollectionPlugin
LogPluginManager: Mounting plugin GeometryProcessing
LogPluginManager: Mounting plugin MotoSynth
LogPluginManager: Mounting plugin PlanarCut
LogPluginManager: Mounting plugin PlatformCrypto
LogPluginManager: Mounting plugin ProxyLODPlugin
LogPluginManager: Mounting plugin PythonScriptPlugin
LogPluginManager: Mounting plugin SkeletalReduction
LogPluginManager: Mounting plugin UdpMessaging
LogPluginManager: Mounting plugin ActorSequence
LogPluginManager: Mounting plugin TcpMessaging
LogPluginManager: Mounting plugin MatineeToLevelSequence
LogPluginManager: Mounting plugin LevelSequenceEditor
LogPluginManager: Mounting plugin TemplateSequence
LogPluginManager: Mounting plugin OnlineSubsystem
LogPluginManager: Mounting plugin OnlineSubsystemNull
LogPluginManager: Mounting plugin OnlineSubsystemUtils
LogPluginManager: Mounting plugin ActorLayerUtilities
LogPluginManager: Mounting plugin LauncherChunkInstaller
LogPluginManager: Mounting plugin AndroidPermission
LogPluginManager: Mounting plugin AndroidMoviePlayer
LogPluginManager: Mounting plugin AndroidDeviceProfileSelector
LogPluginManager: Mounting plugin AppleImageUtils
LogPluginManager: Mounting plugin AppleMoviePlayer
LogPluginManager: Mounting plugin ArchVisCharacter
LogPluginManager: Mounting plugin AudioCapture
LogPluginManager: Mounting plugin AssetTags
LogPluginManager: Mounting plugin AudioSynesthesia
LogPluginManager: Mounting plugin CustomMeshComponent
LogPluginManager: Mounting plugin CableComponent
LogPluginManager: Mounting plugin ChunkDownloader
LogPluginManager: Mounting plugin EditableMesh
LogPluginManager: Mounting plugin ExampleDeviceProfileSelector
LogPluginManager: Mounting plugin GoogleCloudMessaging
LogPluginManager: Mounting plugin GooglePAD
LogPluginManager: Mounting plugin ScreenshotTools
LogPluginManager: Mounting plugin LocationServicesBPLibrary
LogPluginManager: Mounting plugin LinuxDeviceProfileSelector
LogPluginManager: Mounting plugin IOSDeviceProfileSelector
LogPluginManager: Mounting plugin MobilePatchingUtils
LogPluginManager: Mounting plugin PostSplashScreen
LogPluginManager: Mounting plugin PhysXVehicles
LogPluginManager: Mounting plugin PropertyAccessEditor
LogPluginManager: Mounting plugin ProceduralMeshComponent
LogPluginManager: Mounting plugin RuntimePhysXCooking
LogPluginManager: Mounting plugin SignificanceManager
LogPluginManager: Mounting plugin SoundFields
LogPluginManager: Mounting plugin Synthesis
LogPluginManager: Mounting plugin WebMMoviePlayer
LogPluginManager: Mounting plugin WindowsMoviePlayer
LogPluginManager: Mounting plugin AssetManagerEditor
LogPluginManager: Mounting plugin CryptoKeys
LogPluginManager: Mounting plugin CurveEditorTools
LogPluginManager: Mounting plugin DataValidation
LogPluginManager: Mounting plugin FacialAnimation
LogPluginManager: Mounting plugin EditorScriptingUtilities
LogPluginManager: Mounting plugin GeometryMode
LogPluginManager: Mounting plugin GameplayTagsEditor
LogPluginManager: Mounting plugin MacGraphicsSwitching
LogPluginManager: Mounting plugin MobileLauncherProfileWizard
LogPluginManager: Mounting plugin MaterialAnalyzer
LogPluginManager: Mounting plugin PluginBrowser
LogPluginManager: Mounting plugin SpeedTreeImporter
LogPluginManager: Mounting plugin OnlineSubsystemGooglePlay
LogPluginManager: Mounting plugin OnlineSubsystemIOS
LogPluginManager: Mounting plugin DatabaseSupport
LogPluginManager: Mounting plugin SQLiteCore
LogPluginManager: Mounting plugin SQLiteSupport
LogPluginManager: Mounting plugin OculusVR
LogPluginManager: Mounting plugin SteamVR
LogPluginManager: Mounting plugin ContentBrowserAssetDataSource
LogPluginManager: Mounting plugin ContentBrowserClassDataSource
LogPluginManager: Mounting plugin ContentBrowserFileDataSource
LogXGEController: Cleaning working directory: C:/Users/EDELVE7S/AppData/Local/Temp/UnrealXGEWorkingDir/
LogXGEController: Cannot use XGE Controller as Incredibuild is not installed on this machine.
LogInit: Using libcurl 7.55.1-DEV
LogInit:  - built for x86_64-pc-win32
LogInit:  - supports SSL with OpenSSL/1.1.1
LogInit:  - supports HTTP deflate (compression) using libz 1.2.8
LogInit:  - other features:
LogInit:      CURL_VERSION_SSL
LogInit:      CURL_VERSION_LIBZ
LogInit:      CURL_VERSION_IPV6
LogInit:      CURL_VERSION_ASYNCHDNS
LogInit:      CURL_VERSION_LARGEFILE
LogInit:      CURL_VERSION_IDN
LogInit:  CurlRequestOptions (configurable via config and command line):
LogInit:  - bVerifyPeer = true  - Libcurl will verify peer certificate
LogInit:  - bUseHttpProxy = false  - Libcurl will NOT use HTTP proxy
LogInit:  - bDontReuseConnections = false  - Libcurl will reuse connections
LogInit:  - MaxHostConnections = 16  - Libcurl will limit the number of connections to a host
LogInit:  - LocalHostAddr = Default
LogInit:  - BufferSize = 65536
LogOnline: OSS: Creating online subsystem instance for: NULL
LogInit: WinSock: version 1.1 (2.2), MaxSocks=32767, MaxUdp=65467
LogOnline: OSS: TryLoadSubsystemAndSetDefault: Loaded subsystem for module [NULL]
LogInit: Build: ++UE4+Release-4.26-CL-15973114
LogInit: Engine Version: 4.26.2-15973114+++UE4+Release-4.26
LogInit: Compatible Engine Version: 4.26.0-14830424+++UE4+Release-4.26
LogInit: Net CL: 14830424
LogInit: OS: Windows 10 (Release 1909) (), CPU: AMD Ryzen 5 1600 Six-Core Processor            , GPU: NVIDIA GeForce GTX 1060 3GB
LogInit: Compiled (64-bit): Apr 12 2021 06:14:10
LogInit: Compiled with Visual C++: 19.24.28315.00
LogInit: Build Configuration: Development
LogInit: Branch Name: ++UE4+Release-4.26
LogInit: Command Line: 
LogInit: Base Directory: D:/Games/UE_4.26/Engine/Binaries/Win64/
LogInit: Allocator: TBB
LogInit: Installed Engine Build: 1
LogDevObjectVersion: Number of dev versions registered: 29
LogDevObjectVersion:   Dev-Blueprints (B0D832E4-1F89-4F0D-ACCF-7EB736FD4AA2): 10
LogDevObjectVersion:   Dev-Build (E1C64328-A22C-4D53-A36C-8E866417BD8C): 0
LogDevObjectVersion:   Dev-Core (375EC13C-06E4-48FB-B500-84F0262A717E): 4
LogDevObjectVersion:   Dev-Editor (E4B068ED-F494-42E9-A231-DA0B2E46BB41): 40
LogDevObjectVersion:   Dev-Framework (CFFC743F-43B0-4480-9391-14DF171D2073): 37
LogDevObjectVersion:   Dev-Mobile (B02B49B5-BB20-44E9-A304-32B752E40360): 3
LogDevObjectVersion:   Dev-Networking (A4E4105C-59A1-49B5-A7C5-40C4547EDFEE): 0
LogDevObjectVersion:   Dev-Online (39C831C9-5AE6-47DC-9A44-9C173E1C8E7C): 0
LogDevObjectVersion:   Dev-Physics (78F01B33-EBEA-4F98-B9B4-84EACCB95AA2): 4
LogDevObjectVersion:   Dev-Platform (6631380F-2D4D-43E0-8009-CF276956A95A): 0
LogDevObjectVersion:   Dev-Rendering (12F88B9F-8875-4AFC-A67C-D90C383ABD29): 44
LogDevObjectVersion:   Dev-Sequencer (7B5AE74C-D270-4C10-A958-57980B212A5A): 12
LogDevObjectVersion:   Dev-VR (D7296918-1DD6-4BDD-9DE2-64A83CC13884): 3
LogDevObjectVersion:   Dev-LoadTimes (C2A15278-BFE7-4AFE-6C17-90FF531DF755): 1
LogDevObjectVersion:   Private-Geometry (6EACA3D4-40EC-4CC1-B786-8BED09428FC5): 3
LogDevObjectVersion:   Dev-AnimPhys (29E575DD-E0A3-4627-9D10-D276232CDCEA): 17
LogDevObjectVersion:   Dev-Anim (AF43A65D-7FD3-4947-9873-3E8ED9C1BB05): 15
LogDevObjectVersion:   Dev-ReflectionCapture (6B266CEC-1EC7-4B8F-A30B-E4D90942FC07): 1
LogDevObjectVersion:   Dev-Automation (0DF73D61-A23F-47EA-B727-89E90C41499A): 1
LogDevObjectVersion:   FortniteMain (601D1886-AC64-4F84-AA16-D3DE0DEAC7D6): 43
LogDevObjectVersion:   FortniteRelease (E7086368-6B23-4C58-8439-1B7016265E91): 1
LogDevObjectVersion:   Dev-Enterprise (9DFFBCD6-494F-0158-E221-12823C92A888): 10
LogDevObjectVersion:   Dev-Niagara (F2AED0AC-9AFE-416F-8664-AA7FFA26D6FC): 1
LogDevObjectVersion:   Dev-Destruction (174F1F0B-B4C6-45A5-B13F-2EE8D0FB917D): 10
LogDevObjectVersion:   Dev-Physics-Ext (35F94A83-E258-406C-A318-09F59610247C): 40
LogDevObjectVersion:   Dev-PhysicsMaterial-Chaos (B68FC16E-8B1B-42E2-B453-215C058844FE): 1
LogDevObjectVersion:   Dev-CineCamera (B2E18506-4273-CFC2-A54E-F4BB758BBA07): 1
LogDevObjectVersion:   Dev-VirtualProduction (64F58936-FD1B-42BA-BA96-7289D5D0FA4E): 1
LogDevObjectVersion:   Dev-MediaFramework (6F0ED827-A609-4895-9C91-998D90180EA4): 2
LogInit: Presizing for max 25165824 objects, including 0 objects not considered by GC, pre-allocating 0 bytes for permanent pool.
LogConfig: Applying CVar settings from Section [/Script/Engine.StreamingSettings] File [D:/Projects/TopDown/Saved/Config/Windows/Engine.ini]
LogConfig: Setting CVar [[s.MinBulkDataSizeForAsyncLoading:131072]]
LogConfig: Setting CVar [[s.AsyncLoadingThreadEnabled:0]]
LogConfig: Setting CVar [[s.EventDrivenLoaderEnabled:1]]
LogConfig: Setting CVar [[s.WarnIfTimeLimitExceeded:0]]
LogConfig: Setting CVar [[s.TimeLimitExceededMultiplier:1.5]]
LogConfig: Setting CVar [[s.TimeLimitExceededMinTime:0.005]]
LogConfig: Setting CVar [[s.UseBackgroundLevelStreaming:1]]
LogConfig: Setting CVar [[s.PriorityAsyncLoadingExtraTime:15.0]]
LogConfig: Setting CVar [[s.LevelStreamingActorsUpdateTimeLimit:5.0]]
LogConfig: Setting CVar [[s.PriorityLevelStreamingActorsUpdateExtraTime:5.0]]
LogConfig: Setting CVar [[s.LevelStreamingComponentsRegistrationGranularity:10]]
LogConfig: Setting CVar [[s.UnregisterComponentsTimeLimit:1.0]]
LogConfig: Setting CVar [[s.LevelStreamingComponentsUnregistrationGranularity:5]]
LogConfig: Setting CVar [[s.FlushStreamingOnExit:1]]
LogInit: Object subsystem initialized
LogConfig: Setting CVar [[con.DebugEarlyDefault:1]]
LogConfig: Setting CVar [[r.setres:1280x720]]
[2021.04.30-17.28.46:542][  0]LogConfig: Setting CVar [[r.VSync:0]]
[2021.04.30-17.28.46:542][  0]LogConfig: Setting CVar [[r.RHICmdBypass:0]]
[2021.04.30-17.28.46:542][  0]LogConfig: Applying CVar settings from Section [/Script/Engine.RendererSettings] File [D:/Projects/TopDown/Saved/Config/Windows/Engine.ini]
[2021.04.30-17.28.46:543][  0]LogConfig: Setting CVar [[r.GPUCrashDebugging:0]]
[2021.04.30-17.28.46:543][  0]LogConfig: Applying CVar settings from Section [/Script/Engine.RendererOverrideSettings] File [D:/Projects/TopDown/Saved/Config/Windows/Engine.ini]
[2021.04.30-17.28.46:543][  0]LogConfig: Applying CVar settings from Section [/Script/Engine.StreamingSettings] File [D:/Projects/TopDown/Saved/Config/Windows/Engine.ini]
[2021.04.30-17.28.46:543][  0]LogConfig: Setting CVar [[s.MinBulkDataSizeForAsyncLoading:131072]]
[2021.04.30-17.28.46:543][  0]LogConfig: Setting CVar [[s.AsyncLoadingThreadEnabled:0]]
[2021.04.30-17.28.46:543][  0]LogConfig: Setting CVar [[s.EventDrivenLoaderEnabled:1]]
[2021.04.30-17.28.46:543][  0]LogConfig: Setting CVar [[s.WarnIfTimeLimitExceeded:0]]
[2021.04.30-17.28.46:543][  0]LogConfig: Setting CVar [[s.TimeLimitExceededMultiplier:1.5]]
[2021.04.30-17.28.46:543][  0]LogConfig: Setting CVar [[s.TimeLimitExceededMinTime:0.005]]
[2021.04.30-17.28.46:543][  0]LogConfig: Setting CVar [[s.UseBackgroundLevelStreaming:1]]
[2021.04.30-17.28.46:543][  0]LogConfig: Setting CVar [[s.PriorityAsyncLoadingExtraTime:15.0]]
[2021.04.30-17.28.46:543][  0]LogConfig: Setting CVar [[s.LevelStreamingActorsUpdateTimeLimit:5.0]]
[2021.04.30-17.28.46:543][  0]LogConfig: Setting CVar [[s.PriorityLevelStreamingActorsUpdateExtraTime:5.0]]
[2021.04.30-17.28.46:543][  0]LogConfig: Setting CVar [[s.LevelStreamingComponentsRegistrationGranularity:10]]
[2021.04.30-17.28.46:543][  0]LogConfig: Setting CVar [[s.UnregisterComponentsTimeLimit:1.0]]
[2021.04.30-17.28.46:543][  0]LogConfig: Setting CVar [[s.LevelStreamingComponentsUnregistrationGranularity:5]]
[2021.04.30-17.28.46:543][  0]LogConfig: Setting CVar [[s.FlushStreamingOnExit:1]]
[2021.04.30-17.28.46:543][  0]LogConfig: Applying CVar settings from Section [/Script/Engine.GarbageCollectionSettings] File [D:/Projects/TopDown/Saved/Config/Windows/Engine.ini]
[2021.04.30-17.28.46:543][  0]LogConfig: Setting CVar [[gc.MaxObjectsNotConsideredByGC:1]]
[2021.04.30-17.28.46:543][  0]LogConfig: Setting CVar [[gc.SizeOfPermanentObjectPool:0]]
[2021.04.30-17.28.46:543][  0]LogConfig: Setting CVar [[gc.FlushStreamingOnGC:0]]
[2021.04.30-17.28.46:543][  0]LogConfig: Setting CVar [[gc.NumRetriesBeforeForcingGC:10]]
[2021.04.30-17.28.46:543][  0]LogConfig: Setting CVar [[gc.AllowParallelGC:1]]
[2021.04.30-17.28.46:543][  0]LogConfig: Setting CVar [[gc.TimeBetweenPurgingPendingKillObjects:61.1]]
[2021.04.30-17.28.46:543][  0]LogConfig: Setting CVar [[gc.MaxObjectsInEditor:25165824]]
[2021.04.30-17.28.46:543][  0]LogConfig: Setting CVar [[gc.IncrementalBeginDestroyEnabled:1]]
[2021.04.30-17.28.46:543][  0]LogConfig: Setting CVar [[gc.CreateGCClusters:1]]
[2021.04.30-17.28.46:543][  0]LogConfig: Setting CVar [[gc.MinGCClusterSize:5]]
[2021.04.30-17.28.46:543][  0]LogConfig: Setting CVar [[gc.ActorClusteringEnabled:0]]
[2021.04.30-17.28.46:543][  0]LogConfig: Setting CVar [[gc.BlueprintClusteringEnabled:0]]
[2021.04.30-17.28.46:543][  0]LogConfig: Setting CVar [[gc.UseDisregardForGCOnDedicatedServers:0]]
[2021.04.30-17.28.46:543][  0]LogConfig: Setting CVar [[gc.MultithreadedDestructionEnabled:1]]
[2021.04.30-17.28.46:543][  0]LogConfig: Applying CVar settings from Section [/Script/Engine.NetworkSettings] File [D:/Projects/TopDown/Saved/Config/Windows/Engine.ini]
[2021.04.30-17.28.46:543][  0]LogConfig: Applying CVar settings from Section [/Script/UnrealEd.CookerSettings] File [D:/Projects/TopDown/Saved/Config/Windows/Engine.ini]
[2021.04.30-17.28.46:556][  0]LogConfig: Applying CVar settings from Section [ViewDistanceQuality@3] File [D:/Projects/TopDown/Saved/Config/Windows/Scalability.ini]
[2021.04.30-17.28.46:556][  0]LogConfig: Setting CVar [[r.SkeletalMeshLODBias:0]]
[2021.04.30-17.28.46:556][  0]LogConfig: Setting CVar [[r.ViewDistanceScale:1.0]]
[2021.04.30-17.28.46:556][  0]LogConfig: Applying CVar settings from Section [AntiAliasingQuality@3] File [D:/Projects/TopDown/Saved/Config/Windows/Scalability.ini]
[2021.04.30-17.28.46:556][  0]LogConfig: Setting CVar [[r.PostProcessAAQuality:4]]
[2021.04.30-17.28.46:556][  0]LogConfig: Applying CVar settings from Section [ShadowQuality@3] File [D:/Projects/TopDown/Saved/Config/Windows/Scalability.ini]
[2021.04.30-17.28.46:556][  0]LogConfig: Setting CVar [[r.LightFunctionQuality:1]]
[2021.04.30-17.28.46:556][  0]LogConfig: Setting CVar [[r.ShadowQuality:5]]
[2021.04.30-17.28.46:556][  0]LogConfig: Setting CVar [[r.Shadow.CSM.MaxCascades:10]]
[2021.04.30-17.28.46:556][  0]LogConfig: Setting CVar [[r.Shadow.MaxResolution:2048]]
[2021.04.30-17.28.46:556][  0]LogConfig: Setting CVar [[r.Shadow.MaxCSMResolution:2048]]
[2021.04.30-17.28.46:556][  0]LogConfig: Setting CVar [[r.Shadow.RadiusThreshold:0.01]]
[2021.04.30-17.28.46:556][  0]LogConfig: Setting CVar [[r.Shadow.DistanceScale:1.0]]
[2021.04.30-17.28.46:556][  0]LogConfig: Setting CVar [[r.Shadow.CSM.TransitionScale:1.0]]
[2021.04.30-17.28.46:556][  0]LogConfig: Setting CVar [[r.Shadow.PreShadowResolutionFactor:1.0]]
[2021.04.30-17.28.46:556][  0]LogConfig: Setting CVar [[r.DistanceFieldShadowing:1]]
[2021.04.30-17.28.46:556][  0]LogConfig: Setting CVar [[r.DistanceFieldAO:1]]
[2021.04.30-17.28.46:556][  0]LogConfig: Setting CVar [[r.AOQuality:2]]
[2021.04.30-17.28.46:556][  0]LogConfig: Setting CVar [[r.VolumetricFog:1]]
[2021.04.30-17.28.46:556][  0]LogConfig: Setting CVar [[r.VolumetricFog.GridPixelSize:8]]
[2021.04.30-17.28.46:556][  0]LogConfig: Setting CVar [[r.VolumetricFog.GridSizeZ:128]]
[2021.04.30-17.28.46:556][  0]LogConfig: Setting CVar [[r.VolumetricFog.HistoryMissSupersampleCount:4]]
[2021.04.30-17.28.46:556][  0]LogConfig: Setting CVar [[r.LightMaxDrawDistanceScale:1]]
[2021.04.30-17.28.46:556][  0]LogConfig: Setting CVar [[r.CapsuleShadows:1]]
[2021.04.30-17.28.46:556][  0]LogConfig: Applying CVar settings from Section [PostProcessQuality@3] File [D:/Projects/TopDown/Saved/Config/Windows/Scalability.ini]
[2021.04.30-17.28.46:556][  0]LogConfig: Setting CVar [[r.MotionBlurQuality:4]]
[2021.04.30-17.28.46:556][  0]LogConfig: Setting CVar [[r.AmbientOcclusionMipLevelFactor:0.4]]
[2021.04.30-17.28.46:556][  0]LogConfig: Setting CVar [[r.AmbientOcclusionMaxQuality:100]]
[2021.04.30-17.28.46:556][  0]LogConfig: Setting CVar [[r.AmbientOcclusionLevels:-1]]
[2021.04.30-17.28.46:556][  0]LogConfig: Setting CVar [[r.AmbientOcclusionRadiusScale:1.0]]
[2021.04.30-17.28.46:556][  0]LogConfig: Setting CVar [[r.DepthOfFieldQuality:2]]
[2021.04.30-17.28.46:556][  0]LogConfig: Setting CVar [[r.RenderTargetPoolMin:400]]
[2021.04.30-17.28.46:556][  0]LogConfig: Setting CVar [[r.LensFlareQuality:2]]
[2021.04.30-17.28.46:556][  0]LogConfig: Setting CVar [[r.SceneColorFringeQuality:1]]
[2021.04.30-17.28.46:556][  0]LogConfig: Setting CVar [[r.EyeAdaptationQuality:2]]
[2021.04.30-17.28.46:557][  0]LogConfig: Setting CVar [[r.BloomQuality:5]]
[2021.04.30-17.28.46:557][  0]LogConfig: Setting CVar [[r.FastBlurThreshold:100]]
[2021.04.30-17.28.46:557][  0]LogConfig: Setting CVar [[r.Upscale.Quality:3]]
[2021.04.30-17.28.46:557][  0]LogConfig: Setting CVar [[r.Tonemapper.GrainQuantization:1]]
[2021.04.30-17.28.46:557][  0]LogConfig: Setting CVar [[r.LightShaftQuality:1]]
[2021.04.30-17.28.46:557][  0]LogConfig: Setting CVar [[r.Filter.SizeScale:1]]
[2021.04.30-17.28.46:557][  0]LogConfig: Setting CVar [[r.Tonemapper.Quality:5]]
[2021.04.30-17.28.46:557][  0]LogConfig: Setting CVar [[r.DOF.Gather.AccumulatorQuality:1        ; higher gathering accumulator quality]]
[2021.04.30-17.28.46:557][  0]LogConfig: Setting CVar [[r.DOF.Gather.PostfilterMethod:1          ; Median3x3 postfilering method]]
[2021.04.30-17.28.46:557][  0]LogConfig: Setting CVar [[r.DOF.Gather.EnableBokehSettings:0       ; no bokeh simulation when gathering]]
[2021.04.30-17.28.46:557][  0]LogConfig: Setting CVar [[r.DOF.Gather.RingCount:4                 ; medium number of samples when gathering]]
[2021.04.30-17.28.46:557][  0]LogConfig: Setting CVar [[r.DOF.Scatter.ForegroundCompositing:1    ; additive foreground scattering]]
[2021.04.30-17.28.46:557][  0]LogConfig: Setting CVar [[r.DOF.Scatter.BackgroundCompositing:2    ; additive background scattering]]
[2021.04.30-17.28.46:557][  0]LogConfig: Setting CVar [[r.DOF.Scatter.EnableBokehSettings:1      ; bokeh simulation when scattering]]
[2021.04.30-17.28.46:557][  0]LogConfig: Setting CVar [[r.DOF.Scatter.MaxSpriteRatio:0.1         ; only a maximum of 10% of scattered bokeh]]
[2021.04.30-17.28.46:557][  0]LogConfig: Setting CVar [[r.DOF.Recombine.Quality:1                ; cheap slight out of focus]]
[2021.04.30-17.28.46:557][  0]LogConfig: Setting CVar [[r.DOF.Recombine.EnableBokehSettings:0    ; no bokeh simulation on slight out of focus]]
[2021.04.30-17.28.46:557][  0]LogConfig: Setting CVar [[r.DOF.TemporalAAQuality:1                ; more stable temporal accumulation]]
[2021.04.30-17.28.46:557][  0]LogConfig: Setting CVar [[r.DOF.Kernel.MaxForegroundRadius:0.025]]
[2021.04.30-17.28.46:557][  0]LogConfig: Setting CVar [[r.DOF.Kernel.MaxBackgroundRadius:0.025]]
[2021.04.30-17.28.46:557][  0]LogConfig: Applying CVar settings from Section [TextureQuality@3] File [D:/Projects/TopDown/Saved/Config/Windows/Scalability.ini]
[2021.04.30-17.28.46:557][  0]LogConfig: Setting CVar [[r.Streaming.MipBias:0]]
[2021.04.30-17.28.46:557][  0]LogConfig: Setting CVar [[r.Streaming.AmortizeCPUToGPUCopy:0]]
[2021.04.30-17.28.46:557][  0]LogConfig: Setting CVar [[r.Streaming.MaxNumTexturesToStreamPerFrame:0]]
[2021.04.30-17.28.46:557][  0]LogConfig: Setting CVar [[r.Streaming.Boost:1]]
[2021.04.30-17.28.46:557][  0]LogConfig: Setting CVar [[r.MaxAnisotropy:8]]
[2021.04.30-17.28.46:557][  0]LogConfig: Setting CVar [[r.VT.MaxAnisotropy:8]]
[2021.04.30-17.28.46:557][  0]LogConfig: Setting CVar [[r.Streaming.LimitPoolSizeToVRAM:0]]
[2021.04.30-17.28.46:557][  0]LogConfig: Setting CVar [[r.Streaming.PoolSize:1000]]
[2021.04.30-17.28.46:557][  0]LogConfig: Setting CVar [[r.Streaming.MaxEffectiveScreenSize:0]]
[2021.04.30-17.28.46:557][  0]LogConfig: Applying CVar settings from Section [EffectsQuality@3] File [D:/Projects/TopDown/Saved/Config/Windows/Scalability.ini]
[2021.04.30-17.28.46:557][  0]LogConfig: Setting CVar [[r.TranslucencyLightingVolumeDim:64]]
[2021.04.30-17.28.46:557][  0]LogConfig: Setting CVar [[r.RefractionQuality:2]]
[2021.04.30-17.28.46:557][  0]LogConfig: Setting CVar [[r.SSR.Quality:3]]
[2021.04.30-17.28.46:557][  0]LogConfig: Setting CVar [[r.SSR.HalfResSceneColor:0]]
[2021.04.30-17.28.46:557][  0]LogConfig: Setting CVar [[r.SceneColorFormat:4]]
[2021.04.30-17.28.46:557][  0]LogConfig: Setting CVar [[r.DetailMode:2]]
[2021.04.30-17.28.46:557][  0]LogConfig: Setting CVar [[r.TranslucencyVolumeBlur:1]]
[2021.04.30-17.28.46:557][  0]LogConfig: Setting CVar [[r.MaterialQualityLevel:1 ; High quality]]
[2021.04.30-17.28.46:557][  0]LogConfig: Setting CVar [[r.AnisotropicMaterials:1]]
[2021.04.30-17.28.46:557][  0]LogConfig: Setting CVar [[r.SSS.Scale:1]]
[2021.04.30-17.28.46:557][  0]LogConfig: Setting CVar [[r.SSS.SampleSet:2]]
[2021.04.30-17.28.46:557][  0]LogConfig: Setting CVar [[r.SSS.Quality:1]]
[2021.04.30-17.28.46:557][  0]LogConfig: Setting CVar [[r.SSS.HalfRes:0]]
[2021.04.30-17.28.46:557][  0]LogConfig: Setting CVar [[r.SSGI.Quality:3]]
[2021.04.30-17.28.46:557][  0]LogConfig: Setting CVar [[r.EmitterSpawnRateScale:1.0]]
[2021.04.30-17.28.46:557][  0]LogConfig: Setting CVar [[r.ParticleLightQuality:2]]
[2021.04.30-17.28.46:557][  0]LogConfig: Setting CVar [[r.SkyAtmosphere.AerialPerspectiveLUT.FastApplyOnOpaque:1 ; Always have FastSkyLUT 1 in this case to avoid wrong sky]]
[2021.04.30-17.28.46:557][  0]LogConfig: Setting CVar [[r.SkyAtmosphere.AerialPerspectiveLUT.SampleCountMaxPerSlice:4]]
[2021.04.30-17.28.46:557][  0]LogConfig: Setting CVar [[r.SkyAtmosphere.AerialPerspectiveLUT.DepthResolution:16.0]]
[2021.04.30-17.28.46:557][  0]LogConfig: Setting CVar [[r.SkyAtmosphere.FastSkyLUT:1]]
[2021.04.30-17.28.46:557][  0]LogConfig: Setting CVar [[r.SkyAtmosphere.FastSkyLUT.SampleCountMin:4.0]]
[2021.04.30-17.28.46:557][  0]LogConfig: Setting CVar [[r.SkyAtmosphere.FastSkyLUT.SampleCountMax:128.0]]
[2021.04.30-17.28.46:557][  0]LogConfig: Setting CVar [[r.SkyAtmosphere.SampleCountMin:4.0]]
[2021.04.30-17.28.46:557][  0]LogConfig: Setting CVar [[r.SkyAtmosphere.SampleCountMax:128.0]]
[2021.04.30-17.28.46:557][  0]LogConfig: Setting CVar [[r.SkyAtmosphere.TransmittanceLUT.UseSmallFormat:0]]
[2021.04.30-17.28.46:557][  0]LogConfig: Setting CVar [[r.SkyAtmosphere.TransmittanceLUT.SampleCount:10.0]]
[2021.04.30-17.28.46:557][  0]LogConfig: Setting CVar [[r.SkyAtmosphere.MultiScatteringLUT.SampleCount:15.0]]
[2021.04.30-17.28.46:557][  0]LogConfig: Applying CVar settings from Section [FoliageQuality@3] File [D:/Projects/TopDown/Saved/Config/Windows/Scalability.ini]
[2021.04.30-17.28.46:557][  0]LogConfig: Setting CVar [[foliage.DensityScale:1.0]]
[2021.04.30-17.28.46:557][  0]LogConfig: Setting CVar [[grass.DensityScale:1.0]]
[2021.04.30-17.28.46:557][  0]LogConfig: Applying CVar settings from Section [ShadingQuality@3] File [D:/Projects/TopDown/Saved/Config/Windows/Scalability.ini]
[2021.04.30-17.28.46:557][  0]LogConfig: Setting CVar [[r.HairStrands.SkyLighting.IntegrationType:2]]
[2021.04.30-17.28.46:557][  0]LogConfig: Setting CVar [[r.HairStrands.SkyAO.SampleCount:4]]
[2021.04.30-17.28.46:557][  0]LogConfig: Setting CVar [[r.HairStrands.Visibility.MSAA.SamplePerPixel:4]]
[2021.04.30-17.28.46:558][  0]LogInit: Selected Device Profile: [Windows]
[2021.04.30-17.28.46:558][  0]LogInit: Applying CVar settings loaded from the selected device profile: [Windows]
[2021.04.30-17.28.46:558][  0]LogHAL: Display: Platform has ~ 12 GB [12818685952 / 17179869184 / 12], which maps to Larger [LargestMinGB=32, LargerMinGB=12, DefaultMinGB=8, SmallerMinGB=6, SmallestMinGB=0)
[2021.04.30-17.28.46:558][  0]LogInit: Going up to parent DeviceProfile []
[2021.04.30-17.28.46:558][  0]LogConfig: Applying CVar settings from Section [ViewDistanceQuality@Cine] File [D:/Projects/TopDown/Saved/Config/Windows/Scalability.ini]
[2021.04.30-17.28.46:558][  0]LogConfig: Setting CVar [[r.SkeletalMeshLODBias:0]]
[2021.04.30-17.28.46:558][  0]LogConfig: Setting CVar [[r.ViewDistanceScale:10.0]]
[2021.04.30-17.28.46:558][  0]LogConfig: Applying CVar settings from Section [AntiAliasingQuality@Cine] File [D:/Projects/TopDown/Saved/Config/Windows/Scalability.ini]
[2021.04.30-17.28.46:558][  0]LogConfig: Setting CVar [[r.PostProcessAAQuality:6]]
[2021.04.30-17.28.46:558][  0]LogConfig: Applying CVar settings from Section [ShadowQuality@Cine] File [D:/Projects/TopDown/Saved/Config/Windows/Scalability.ini]
[2021.04.30-17.28.46:558][  0]LogConfig: Setting CVar [[r.LightFunctionQuality:1]]
[2021.04.30-17.28.46:558][  0]LogConfig: Setting CVar [[r.ShadowQuality:5]]
[2021.04.30-17.28.46:558][  0]LogConfig: Setting CVar [[r.Shadow.CSM.MaxCascades:10]]
[2021.04.30-17.28.46:558][  0]LogConfig: Setting CVar [[r.Shadow.MaxResolution:4096]]
[2021.04.30-17.28.46:558][  0]LogConfig: Setting CVar [[r.Shadow.MaxCSMResolution:4096]]
[2021.04.30-17.28.46:558][  0]LogConfig: Setting CVar [[r.Shadow.RadiusThreshold:0]]
[2021.04.30-17.28.46:558][  0]LogConfig: Setting CVar [[r.Shadow.DistanceScale:1.0]]
[2021.04.30-17.28.46:558][  0]LogConfig: Setting CVar [[r.Shadow.CSM.TransitionScale:1.0]]
[2021.04.30-17.28.46:558][  0]LogConfig: Setting CVar [[r.Shadow.PreShadowResolutionFactor:1.0]]
[2021.04.30-17.28.46:558][  0]LogConfig: Setting CVar [[r.DistanceFieldShadowing:1]]
[2021.04.30-17.28.46:558][  0]LogConfig: Setting CVar [[r.DistanceFieldAO:1]]
[2021.04.30-17.28.46:558][  0]LogConfig: Setting CVar [[r.AOQuality:2]]
[2021.04.30-17.28.46:558][  0]LogConfig: Setting CVar [[r.VolumetricFog:1]]
[2021.04.30-17.28.46:558][  0]LogConfig: Setting CVar [[r.VolumetricFog.GridPixelSize:4]]
[2021.04.30-17.28.46:558][  0]LogConfig: Setting CVar [[r.VolumetricFog.GridSizeZ:128]]
[2021.04.30-17.28.46:558][  0]LogConfig: Setting CVar [[r.VolumetricFog.HistoryMissSupersampleCount:16]]
[2021.04.30-17.28.46:558][  0]LogConfig: Setting CVar [[r.LightMaxDrawDistanceScale:1]]
[2021.04.30-17.28.46:558][  0]LogConfig: Setting CVar [[r.CapsuleShadows:1]]
[2021.04.30-17.28.46:558][  0]LogConfig: Applying CVar settings from Section [PostProcessQuality@Cine] File [D:/Projects/TopDown/Saved/Config/Windows/Scalability.ini]
[2021.04.30-17.28.46:558][  0]LogConfig: Setting CVar [[r.MotionBlurQuality:4]]
[2021.04.30-17.28.46:558][  0]LogConfig: Setting CVar [[r.AmbientOcclusionMipLevelFactor:0.4]]
[2021.04.30-17.28.46:558][  0]LogConfig: Setting CVar [[r.AmbientOcclusionMaxQuality:100]]
[2021.04.30-17.28.46:558][  0]LogConfig: Setting CVar [[r.AmbientOcclusionLevels:-1]]
[2021.04.30-17.28.46:558][  0]LogConfig: Setting CVar [[r.AmbientOcclusionRadiusScale:1.0]]
[2021.04.30-17.28.46:558][  0]LogConfig: Setting CVar [[r.GTAO.Numangles:4]]
[2021.04.30-17.28.46:558][  0]LogConfig: Setting CVar [[r.DepthOfFieldQuality:4]]
[2021.04.30-17.28.46:558][  0]LogConfig: Setting CVar [[r.RenderTargetPoolMin:1000]]
[2021.04.30-17.28.46:558][  0]LogConfig: Setting CVar [[r.LensFlareQuality:3]]
[2021.04.30-17.28.46:558][  0]LogConfig: Setting CVar [[r.SceneColorFringeQuality:1]]
[2021.04.30-17.28.46:558][  0]LogConfig: Setting CVar [[r.EyeAdaptationQuality:2]]
[2021.04.30-17.28.46:558][  0]LogConfig: Setting CVar [[r.BloomQuality:5]]
[2021.04.30-17.28.46:558][  0]LogConfig: Setting CVar [[r.FastBlurThreshold:100]]
[2021.04.30-17.28.46:558][  0]LogConfig: Setting CVar [[r.Upscale.Quality:3]]
[2021.04.30-17.28.46:558][  0]LogConfig: Setting CVar [[r.Tonemapper.GrainQuantization:1]]
[2021.04.30-17.28.46:558][  0]LogConfig: Setting CVar [[r.LightShaftQuality:1]]
[2021.04.30-17.28.46:558][  0]LogConfig: Setting CVar [[r.Filter.SizeScale:1]]
[2021.04.30-17.28.46:558][  0]LogConfig: Setting CVar [[r.Tonemapper.Quality:5]]
[2021.04.30-17.28.46:558][  0]LogConfig: Setting CVar [[r.DOF.Gather.AccumulatorQuality:1        ; higher gathering accumulator quality]]
[2021.04.30-17.28.46:558][  0]LogConfig: Setting CVar [[r.DOF.Gather.PostfilterMethod:1          ; Median3x3 postfilering method]]
[2021.04.30-17.28.46:558][  0]LogConfig: Setting CVar [[r.DOF.Gather.EnableBokehSettings:1       ; bokeh simulation when gathering]]
[2021.04.30-17.28.46:558][  0]LogConfig: Setting CVar [[r.DOF.Gather.RingCount:5                 ; high number of samples when gathering]]
[2021.04.30-17.28.46:558][  0]LogConfig: Setting CVar [[r.DOF.Scatter.ForegroundCompositing:1    ; additive foreground scattering]]
[2021.04.30-17.28.46:558][  0]LogConfig: Setting CVar [[r.DOF.Scatter.BackgroundCompositing:2    ; background scattering occlusion]]
[2021.04.30-17.28.46:558][  0]LogConfig: Setting CVar [[r.DOF.Scatter.EnableBokehSettings:1      ; no bokeh simulation when scattering]]
[2021.04.30-17.28.46:558][  0]LogConfig: Setting CVar [[r.DOF.Scatter.MaxSpriteRatio:0.25        ; only a maximum of 10% of scattered bokeh]]
[2021.04.30-17.28.46:558][  0]LogConfig: Setting CVar [[r.DOF.Recombine.Quality:2                ; highest slight out of focus]]
[2021.04.30-17.28.46:558][  0]LogConfig: Setting CVar [[r.DOF.Recombine.EnableBokehSettings:1    ; bokeh simulation on slight out of focus]]
[2021.04.30-17.28.46:558][  0]LogConfig: Setting CVar [[r.DOF.TemporalAAQuality:1                ; more stable temporal accumulation]]
[2021.04.30-17.28.46:558][  0]LogConfig: Setting CVar [[r.DOF.Kernel.MaxForegroundRadius:0.025]]
[2021.04.30-17.28.46:558][  0]LogConfig: Setting CVar [[r.DOF.Kernel.MaxBackgroundRadius:0.025]]
[2021.04.30-17.28.46:558][  0]LogConfig: Applying CVar settings from Section [TextureQuality@Cine] File [D:/Projects/TopDown/Saved/Config/Windows/Scalability.ini]
[2021.04.30-17.28.46:559][  0]LogConfig: Setting CVar [[r.Streaming.MipBias:0]]
[2021.04.30-17.28.46:559][  0]LogConfig: Setting CVar [[r.Streaming.AmortizeCPUToGPUCopy:0]]
[2021.04.30-17.28.46:559][  0]LogConfig: Setting CVar [[r.Streaming.MaxNumTexturesToStreamPerFrame:0]]
[2021.04.30-17.28.46:559][  0]LogConfig: Setting CVar [[r.Streaming.Boost:1]]
[2021.04.30-17.28.46:559][  0]LogConfig: Setting CVar [[r.MaxAnisotropy:8]]
[2021.04.30-17.28.46:559][  0]LogConfig: Setting CVar [[r.VT.MaxAnisotropy:8]]
[2021.04.30-17.28.46:559][  0]LogConfig: Setting CVar [[r.Streaming.LimitPoolSizeToVRAM:0]]
[2021.04.30-17.28.46:559][  0]LogConfig: Setting CVar [[r.Streaming.PoolSize:3000]]
[2021.04.30-17.28.46:559][  0]LogConfig: Setting CVar [[r.Streaming.MaxEffectiveScreenSize:0]]
[2021.04.30-17.28.46:559][  0]LogConfig: Applying CVar settings from Section [EffectsQuality@Cine] File [D:/Projects/TopDown/Saved/Config/Windows/Scalability.ini]
[2021.04.30-17.28.46:559][  0]LogConfig: Setting CVar [[r.TranslucencyLightingVolumeDim:64]]
[2021.04.30-17.28.46:559][  0]LogConfig: Setting CVar [[r.RefractionQuality:2]]
[2021.04.30-17.28.46:559][  0]LogConfig: Setting CVar [[r.SSR.Quality:4]]
[2021.04.30-17.28.46:559][  0]LogConfig: Setting CVar [[r.SSR.HalfResSceneColor:0]]
[2021.04.30-17.28.46:559][  0]LogConfig: Setting CVar [[r.SceneColorFormat:4]]
[2021.04.30-17.28.46:559][  0]LogConfig: Setting CVar [[r.DetailMode:2]]
[2021.04.30-17.28.46:559][  0]LogConfig: Setting CVar [[r.TranslucencyVolumeBlur:1]]
[2021.04.30-17.28.46:559][  0]LogConfig: Setting CVar [[r.MaterialQualityLevel:1 ; High quality]]
[2021.04.30-17.28.46:559][  0]LogConfig: Setting CVar [[r.AnisotropicMaterials:1]]
[2021.04.30-17.28.46:559][  0]LogConfig: Setting CVar [[r.SSS.Scale:1]]
[2021.04.30-17.28.46:559][  0]LogConfig: Setting CVar [[r.SSS.SampleSet:2]]
[2021.04.30-17.28.46:559][  0]LogConfig: Setting CVar [[r.SSS.Quality:1]]
[2021.04.30-17.28.46:559][  0]LogConfig: Setting CVar [[r.SSS.HalfRes:0]]
[2021.04.30-17.28.46:559][  0]LogConfig: Setting CVar [[r.SSGI.Quality:4]]
[2021.04.30-17.28.46:559][  0]LogConfig: Setting CVar [[r.EmitterSpawnRateScale:1.0]]
[2021.04.30-17.28.46:559][  0]LogConfig: Setting CVar [[r.ParticleLightQuality:2]]
[2021.04.30-17.28.46:559][  0]LogConfig: Setting CVar [[r.SkyAtmosphere.AerialPerspectiveLUT.FastApplyOnOpaque:0]]
[2021.04.30-17.28.46:559][  0]LogConfig: Setting CVar [[r.SkyAtmosphere.AerialPerspectiveLUT.SampleCountMaxPerSlice:8]]
[2021.04.30-17.28.46:559][  0]LogConfig: Setting CVar [[r.SkyAtmosphere.AerialPerspectiveLUT.DepthResolution:32.0]]
[2021.04.30-17.28.46:559][  0]LogConfig: Setting CVar [[r.SkyAtmosphere.FastSkyLUT:0]]
[2021.04.30-17.28.46:559][  0]LogConfig: Setting CVar [[r.SkyAtmosphere.FastSkyLUT.SampleCountMin:4.0]]
[2021.04.30-17.28.46:559][  0]LogConfig: Setting CVar [[r.SkyAtmosphere.FastSkyLUT.SampleCountMax:256.0]]
[2021.04.30-17.28.46:559][  0]LogConfig: Setting CVar [[r.SkyAtmosphere.SampleCountMin:8.0]]
[2021.04.30-17.28.46:559][  0]LogConfig: Setting CVar [[r.SkyAtmosphere.SampleCountMax:256.0]]
[2021.04.30-17.28.46:559][  0]LogConfig: Setting CVar [[r.SkyAtmosphere.TransmittanceLUT.UseSmallFormat:0]]
[2021.04.30-17.28.46:559][  0]LogConfig: Setting CVar [[r.SkyAtmosphere.TransmittanceLUT.SampleCount:30.0]]
[2021.04.30-17.28.46:559][  0]LogConfig: Setting CVar [[r.SkyAtmosphere.MultiScatteringLUT.SampleCount:20.0]]
[2021.04.30-17.28.46:559][  0]LogConfig: Applying CVar settings from Section [FoliageQuality@Cine] File [D:/Projects/TopDown/Saved/Config/Windows/Scalability.ini]
[2021.04.30-17.28.46:559][  0]LogConfig: Setting CVar [[foliage.DensityScale:1.0]]
[2021.04.30-17.28.46:559][  0]LogConfig: Setting CVar [[grass.DensityScale:1.0]]
[2021.04.30-17.28.46:559][  0]LogConfig: Applying CVar settings from Section [ShadingQuality@Cine] File [D:/Projects/TopDown/Saved/Config/Windows/Scalability.ini]
[2021.04.30-17.28.46:559][  0]LogConfig: Setting CVar [[r.HairStrands.SkyLighting.IntegrationType:0]]
[2021.04.30-17.28.46:559][  0]LogConfig: Setting CVar [[r.HairStrands.SkyAO.SampleCount:8]]
[2021.04.30-17.28.46:559][  0]LogConfig: Setting CVar [[r.HairStrands.Visibility.MSAA.SamplePerPixel:8]]
[2021.04.30-17.28.46:559][  0]LogConfig: Applying CVar settings from Section [Startup] File [../../../Engine/Config/ConsoleVariables.ini]
[2021.04.30-17.28.46:559][  0]LogConfig: Setting CVar [[net.UseAdaptiveNetUpdateFrequency:0]]
[2021.04.30-17.28.46:559][  0]LogConfig: Setting CVar [[p.chaos.AllowCreatePhysxBodies:1]]
[2021.04.30-17.28.46:559][  0]LogConfig: Setting CVar [[fx.SkipVectorVMBackendOptimizations:1]]
[2021.04.30-17.28.46:559][  0]LogConfig: Applying CVar settings from Section [ConsoleVariables] File [D:/Projects/TopDown/Saved/Config/Windows/Engine.ini]
[2021.04.30-17.28.46:559][  0]LogConfig: Applying CVar settings from Section [ConsoleVariables] File [D:/Projects/TopDown/Saved/Config/Windows/Editor.ini]
[2021.04.30-17.28.46:560][  0]LogInit: Computer: DESKTOP-0F66F5R
[2021.04.30-17.28.46:560][  0]LogInit: User: EDELVE7S
[2021.04.30-17.28.46:560][  0]LogInit: CPU Page size=4096, Cores=6
[2021.04.30-17.28.46:560][  0]LogInit: High frequency timer resolution =10.000000 MHz
[2021.04.30-17.28.46:560][  0]LogMemory: Memory total: Physical=11.9GB (12GB approx)
[2021.04.30-17.28.46:560][  0]LogMemory: Platform Memory Stats for Windows
[2021.04.30-17.28.46:560][  0]LogMemory: Process Physical Memory: 139.63 MB used, 139.63 MB peak
[2021.04.30-17.28.46:560][  0]LogMemory: Process Virtual Memory: 120.57 MB used, 120.57 MB peak
[2021.04.30-17.28.46:560][  0]LogMemory: Physical Memory: 2162.57 MB used,  10062.28 MB free, 12224.85 MB total
[2021.04.30-17.28.46:560][  0]LogMemory: Virtual Memory: 134205992.00 MB used,  11736.96 MB free, 134217728.00 MB total
[2021.04.30-17.28.46:565][  0]LogWindows: WindowsPlatformFeatures enabled
[2021.04.30-17.28.46:606][  0]LogInit: Physics initialised using underlying interface: PhysX
[2021.04.30-17.28.46:609][  0]LogInit: Overriding language with editor language configuration option (en).
[2021.04.30-17.28.46:609][  0]LogInit: Overriding language with editor locale configuration option (ru).
[2021.04.30-17.28.46:803][  0]LogInit: Setting process to per monitor DPI aware
[2021.04.30-17.28.46:815][  0]LogWindowsTextInputMethodSystem: Display: IME system deactivated.
[2021.04.30-17.28.46:832][  0]LogSlate: New Slate User Created.  User Index 0, Is Virtual User: 0
[2021.04.30-17.28.46:832][  0]LogSlate: Slate User Registered.  User Index 0, Is Virtual User: 0
[2021.04.30-17.28.46:979][  0]LogHMD: Failed to initialize OpenVR with code 110
[2021.04.30-17.28.46:979][  0]LogD3D11RHI: D3D11 min allowed feature level: 11_0
[2021.04.30-17.28.46:979][  0]LogD3D11RHI: D3D11 max allowed feature level: 11_0
[2021.04.30-17.28.46:979][  0]LogD3D11RHI: D3D11 adapters:
[2021.04.30-17.28.47:062][  0]LogD3D11RHI:    0. 'NVIDIA GeForce GTX 1060 3GB' (Feature Level 11_0)
[2021.04.30-17.28.47:062][  0]LogD3D11RHI:       2988/0/6112 MB DedicatedVideo/DedicatedSystem/SharedSystem, Outputs:2, VendorId:0x10de
[2021.04.30-17.28.47:064][  0]LogD3D11RHI:    1. 'Microsoft Basic Render Driver' (Feature Level 11_0)
[2021.04.30-17.28.47:064][  0]LogD3D11RHI:       0/0/6112 MB DedicatedVideo/DedicatedSystem/SharedSystem, Outputs:0, VendorId:0x1414
[2021.04.30-17.28.47:064][  0]LogD3D11RHI: Chosen D3D11 Adapter: 0
[2021.04.30-17.28.47:069][  0]LogD3D11RHI: Creating new Direct3DDevice
[2021.04.30-17.28.47:069][  0]LogD3D11RHI:     GPU DeviceId: 0x1c02 (for the marketing name, search the web for "GPU Device Id")
[2021.04.30-17.28.47:069][  0]LogWindows: EnumDisplayDevices:
[2021.04.30-17.28.47:070][  0]LogWindows:    0. 'NVIDIA GeForce GTX 1060 3GB' (P:1 D:1)
[2021.04.30-17.28.47:070][  0]LogWindows:    1. 'NVIDIA GeForce GTX 1060 3GB' (P:0 D:1)
[2021.04.30-17.28.47:070][  0]LogWindows:    2. 'NVIDIA GeForce GTX 1060 3GB' (P:0 D:0)
[2021.04.30-17.28.47:070][  0]LogWindows:    3. 'NVIDIA GeForce GTX 1060 3GB' (P:0 D:0)
[2021.04.30-17.28.47:070][  0]LogWindows: DebugString: FoundDriverCount:4 
[2021.04.30-17.28.47:070][  0]LogD3D11RHI:     Adapter Name: NVIDIA GeForce GTX 1060 3GB
[2021.04.30-17.28.47:070][  0]LogD3D11RHI:   Driver Version: 466.11 (internal:27.21.14.6611, unified:466.11)
[2021.04.30-17.28.47:070][  0]LogD3D11RHI:      Driver Date: 4-12-2021
[2021.04.30-17.28.47:070][  0]LogRHI: Texture pool is 2091 MB (70% of 2988 MB)
[2021.04.30-17.28.47:136][  0]LogD3D11RHI: RHI has support for 64 bit atomics
[2021.04.30-17.28.47:136][  0]LogD3D11RHI: Async texture creation enabled
[2021.04.30-17.28.47:136][  0]LogD3D11RHI: Array index from any shader is supported
[2021.04.30-17.28.47:160][  0]LogD3D11RHI: GPU Timing Frequency: 1000.000000 (Debug: 2 1)
[2021.04.30-17.28.47:161][  0]LogRHI: GeForceNow SDK initialized: 1
[2021.04.30-17.28.47:438][  0]LogTargetPlatformManager: Display: Loaded TargetPlatform 'AllDesktop'
[2021.04.30-17.28.47:460][  0]LogTargetPlatformManager: Display: Loaded TargetPlatform 'Android'
[2021.04.30-17.28.47:460][  0]LogTargetPlatformManager: Display: Loaded TargetPlatform 'Android_ASTC'
[2021.04.30-17.28.47:460][  0]LogTargetPlatformManager: Display: Loaded TargetPlatform 'Android_DXT'
[2021.04.30-17.28.47:460][  0]LogTargetPlatformManager: Display: Loaded TargetPlatform 'Android_ETC2'
[2021.04.30-17.28.47:460][  0]LogTargetPlatformManager: Display: Loaded TargetPlatform 'AndroidClient'
[2021.04.30-17.28.47:461][  0]LogTargetPlatformManager: Display: Loaded TargetPlatform 'Android_ASTCClient'
[2021.04.30-17.28.47:461][  0]LogTargetPlatformManager: Display: Loaded TargetPlatform 'Android_DXTClient'
[2021.04.30-17.28.47:461][  0]LogTargetPlatformManager: Display: Loaded TargetPlatform 'Android_ETC2Client'
[2021.04.30-17.28.47:461][  0]LogTargetPlatformManager: Display: Loaded TargetPlatform 'Android_Multi'
[2021.04.30-17.28.47:461][  0]LogTargetPlatformManager: Display: Loaded TargetPlatform 'Android_MultiClient'
[2021.04.30-17.28.47:483][  0]LogTargetPlatformManager: Display: Loaded TargetPlatform 'IOSClient'
[2021.04.30-17.28.47:483][  0]LogTargetPlatformManager: Display: Loaded TargetPlatform 'IOS'
[2021.04.30-17.28.47:493][  0]LogTargetPlatformManager: Display: Loaded TargetPlatform 'Linux'
[2021.04.30-17.28.47:503][  0]LogTargetPlatformManager: Display: Loaded TargetPlatform 'LinuxNoEditor'
[2021.04.30-17.28.47:512][  0]LogTargetPlatformManager: Display: Loaded TargetPlatform 'LinuxClient'
[2021.04.30-17.28.47:521][  0]LogTargetPlatformManager: Display: Loaded TargetPlatform 'LinuxServer'
[2021.04.30-17.28.47:530][  0]LogTargetPlatformManager: Display: Loaded TargetPlatform 'LinuxAArch64NoEditor'
[2021.04.30-17.28.47:540][  0]LogTargetPlatformManager: Display: Loaded TargetPlatform 'LinuxAArch64Client'
[2021.04.30-17.28.47:549][  0]LogTargetPlatformManager: Display: Loaded TargetPlatform 'LinuxAArch64Server'
[2021.04.30-17.28.47:575][  0]LogTargetPlatformManager: Display: Loaded TargetPlatform 'Lumin'
[2021.04.30-17.28.47:575][  0]LogTargetPlatformManager: Display: Loaded TargetPlatform 'LuminClient'
[2021.04.30-17.28.47:584][  0]LogTargetPlatformManager: Display: Loaded TargetPlatform 'MacNoEditor'
[2021.04.30-17.28.47:594][  0]LogTargetPlatformManager: Display: Loaded TargetPlatform 'Mac'
[2021.04.30-17.28.47:604][  0]LogTargetPlatformManager: Display: Loaded TargetPlatform 'MacClient'
[2021.04.30-17.28.47:613][  0]LogTargetPlatformManager: Display: Loaded TargetPlatform 'MacServer'
[2021.04.30-17.28.47:629][  0]LogTargetPlatformManager: Display: Loaded TargetPlatform 'TVOSClient'
[2021.04.30-17.28.47:629][  0]LogTargetPlatformManager: Display: Loaded TargetPlatform 'TVOS'
[2021.04.30-17.28.47:639][  0]LogTargetPlatformManager: Display: Loaded TargetPlatform 'WindowsNoEditor'
[2021.04.30-17.28.47:649][  0]LogTargetPlatformManager: Display: Loaded TargetPlatform 'Windows'
[2021.04.30-17.28.47:658][  0]LogTargetPlatformManager: Display: Loaded TargetPlatform 'WindowsClient'
[2021.04.30-17.28.47:668][  0]LogTargetPlatformManager: Display: Loaded TargetPlatform 'WindowsServer'
[2021.04.30-17.28.47:668][  0]LogTargetPlatformManager: Display: Building Assets For Windows
[2021.04.30-17.28.47:676][  0]LogAudioDebug: Display: Lib vorbis DLL was dynamically loaded.
[2021.04.30-17.28.47:739][  0]LogRendererCore: Ray tracing is disabled. Reason: r.RayTracing=0.
[2021.04.30-17.28.47:739][  0]LogShaderCompilers: Guid format shader working directory is 17 characters bigger than the processId version (../../../../../Projects/TopDown/Intermediate/Shaders/WorkingDirectory/11936/).
[2021.04.30-17.28.47:739][  0]LogShaderCompilers: Cleaned the shader compiler working directory 'C:/Users/EDELVE7S/AppData/Local/Temp/UnrealShaderWorkingDir/81963BE840B95B92A9DAF68E3AD2745A/'.
[2021.04.30-17.28.47:739][  0]LogShaderCompilers: Cannot use XGE Shader Compiler as Incredibuild is not installed on this machine.
[2021.04.30-17.28.47:739][  0]LogShaderCompilers: Display: Using Local Shader Compiler.
[2021.04.30-17.28.48:548][  0]LogDerivedDataCache: Display: Max Cache Size: 512 MB
[2021.04.30-17.28.48:601][  0]LogDerivedDataCache: Loaded boot cache 0.05s 77MB C:/Users/EDELVE7S/AppData/Local/UnrealEngine/4.26/DerivedDataCache/Boot.ddc.
[2021.04.30-17.28.48:601][  0]LogDerivedDataCache: Display: Loaded Boot cache: C:/Users/EDELVE7S/AppData/Local/UnrealEngine/4.26/DerivedDataCache/Boot.ddc
[2021.04.30-17.28.48:601][  0]LogDerivedDataCache: FDerivedDataBackendGraph:  Pak pak cache file ../../../../../Projects/TopDown/DerivedDataCache/DDC.ddp not found, will not use a pak cache.
[2021.04.30-17.28.48:601][  0]LogDerivedDataCache: Unable to find inner node Pak for hierarchical cache Hierarchy.
[2021.04.30-17.28.48:601][  0]LogDerivedDataCache: FDerivedDataBackendGraph:  CompressedPak pak cache file ../../../../../Projects/TopDown/DerivedDataCache/Compressed.ddp not found, will not use a pak cache.
[2021.04.30-17.28.48:601][  0]LogDerivedDataCache: Unable to find inner node CompressedPak for hierarchical cache Hierarchy.
[2021.04.30-17.28.48:615][  0]LogDerivedDataCache: Display: Pak cache opened for reading ../../../Engine/DerivedDataCache/Compressed.ddp.
[2021.04.30-17.28.48:615][  0]LogDerivedDataCache: FDerivedDataBackendGraph:  EnterprisePak pak cache file ../../../Enterprise/DerivedDataCache/Compressed.ddp not found, will not use a pak cache.
[2021.04.30-17.28.48:615][  0]LogDerivedDataCache: Unable to find inner node EnterprisePak for hierarchical cache Hierarchy.
[2021.04.30-17.28.48:621][  0]LogDerivedDataCache: Speed tests for C:/Users/EDELVE7S/AppData/Local/UnrealEngine/Common/DerivedDataCache took 0.01 seconds
[2021.04.30-17.28.48:621][  0]LogDerivedDataCache: Display: Performance to C:/Users/EDELVE7S/AppData/Local/UnrealEngine/Common/DerivedDataCache: Latency=0.02ms. RandomReadSpeed=986.09MBs, RandomWriteSpeed=187.43MBs. Assigned SpeedClass 'Local'
[2021.04.30-17.28.48:622][  0]LogDerivedDataCache: Using Local data cache path C:/Users/EDELVE7S/AppData/Local/UnrealEngine/Common/DerivedDataCache: Writable
[2021.04.30-17.28.48:622][  0]LogDerivedDataCache: Shared data cache path not found in *engine.ini, will not use an Shared cache.
[2021.04.30-17.28.48:622][  0]LogDerivedDataCache: Unable to find inner node Shared for hierarchical cache Hierarchy.
[2021.04.30-17.28.48:674][  0]LogSlate: Using FreeType 2.10.0
[2021.04.30-17.28.48:675][  0]LogSlate: SlateFontServices - WITH_FREETYPE: 1, WITH_HARFBUZZ: 1
[2021.04.30-17.28.48:699][  0]LogAssetRegistry: FAssetRegistry took 0.0028 seconds to start up
[2021.04.30-17.28.48:976][  0]LogInit: Selected Device Profile: [Windows]
[2021.04.30-17.28.48:976][  0]LogInit: Active device profile: [000001B01487A000][000001B0136DAE00 49] Windows
[2021.04.30-17.28.48:976][  0]LogInit: Profiles: [000001B01487A000][000001B0136DAE00 49] Windows, [000001B01481FC00][000001B0136E2F80 49] WindowsNoEditor, [000001B014878500][000001B0136E7100 49] WindowsServer, [000001B01481C800][000001B0136EB280 49] WindowsClient, [000001B01487B700][000001B0136EF400 49] IOS, [000001B01481EC00][000001B0136F3580 49] iPadAir, [000001B014879500][000001B0136DF6C0 49] iPadAir2, [000001B0147CF800][000001B0136FB900 49] IPadPro, [000001B0147CF900][000001B0136F7940 49] iPadAir3, [000001B01487A900][000001B013703AC0 49] iPadAir4, [000001B0147CE800][000001B013707C40 49] iPadMini2, [000001B014878A00][000001B01370A100 49] iPadMini3, [000001B0147CD400][000001B01370E280 49] iPadMini4, [000001B014878200][000001B013712400 49] iPadMini5, [000001B0147FF100][000001B01371A6C0 49] iPhone6, [000001B0147FF200][000001B013716700 49] iPodTouch6, [000001B0147CF500][000001B0137229C0 49] iPhone7, [000001B0147CF400][000001B01371EA00 49] iPodTouch7, [000001B0147FE600][000001B013726B80 49] iPhone5S, [000001B0147CD700][000001B01372AD00 49] iPhone6Plus, [000001B0147FCE00][000001B01372EE80 49] iPhone6S, [000001B0147CCB00][000001B013733000 49] iPhone6SPlus, [000001B0147FED00][000001B013737180 49] iPhone7Plus, [000001B0147CFF00][000001B01373B300 49] iPhoneSE, [000001B0147FE700][000001B01373F480 49] iPhone8, [000001B0147CD000][000001B013743600 49] iPhone8Plus, [000001B0147FE400][000001B0136FF740 49] iPhoneX, [000001B0147CD800][000001B013747880 49] iPhoneXS, [000001B0147FC700][000001B01374B9C0 49] iPhoneXSMax, [000001B0147CC400][000001B013753B40 49] iPhoneXR, [000001B0147FF500][000001B013757CC0 49] iPhone11, [000001B0147CF200][000001B01375A180 49] iPhone11Pro, [000001B0147FE300][000001B01375E300 49] iPhone11ProMax, [000001B0147CDA00][000001B013762480 49] iPhoneSE2, [000001B0147FD900][000001B013766600 49] iPhone12Mini, [000001B0147CCA00][000001B01376A780 49] iPhone12, [000001B0147FC400][000001B015780900 49] iPhone12Pro, [000001B0147CC300][000001B015784A80 49] iPhone12ProMax, [000001B0147FE900][000001B015788C00 49] iPadPro105, [000001B0147CD500][000001B01578CD80 49] iPadPro129, [000001B0147FD700][000001B015790F00 49] iPadPro97, [000001B0147CFB00][000001B015795080 49] iPadPro2_129, [000001B0147FD000][000001B015799200 49] iPad5, [000001B0147CFD00][000001B01579D380 49] iPad6, [000001B01481F700][000001B0157A1500 49] iPad7, [000001B0147FEF00][000001B0157A5680 49] iPad8, [000001B01481FF00][000001B01374F7C0 49] iPadPro11, [000001B0147FFA00][000001B0157A9900 49] iPadPro2_11, [000001B01481F000][000001B0157ADA40 49] iPadPro3_129, [000001B0147FF000][000001B0157B1B80 49] iPadPro4_129, [000001B01481F900][000001B0157B9D00 49] AppleTV, [000001B0147FDE00][000001B0157BC1C0 49] AppleTV4K, [000001B01481C200][000001B0157C0340 49] TVOS, [000001B0147FC600][000001B0157C44C0 49] Mac, [000001B01481C600][000001B0157C8640 49] MacClient, [000001B0147FE000][000001B0157CC7C0 49] MacNoEditor, [000001B01481C700][000001B0157D0940 49] MacServer, [000001B0147CCC00][000001B0157D4AC0 49] Linux, [000001B01481F800][000001B0157D8C40 49] LinuxAArch64, [000001B0147CFE00][000001B0157DCDC0 49] LinuxNoEditor, [000001B01481FE00][000001B0157E0F40 49] LinuxAArch64NoEditor, [000001B0147CEB00][000001B0157E50C0 49] LinuxClient, [000001B01481ED00][000001B0157F1240 49] LinuxAArch64Client, [000001B0147CE200][000001B01581D3C0 49] LinuxServer, [000001B01481CB00][000001B015821540 49] LinuxAArch64Server, [000001B0147CC100][000001B0158256C0 49] Android, [000001B01481D600][000001B0157B5800 49] Android_Low, [000001B0147CCD00][000001B015829940 49] Android_Mid, [000001B01481F200][000001B015831A80 49] Android_High, [000001B0147CDB00][000001B015835BC0 49] Android_Default, [000001B01481E700][000001B01583DD40 49] Android_Adreno4xx, [000001B0147CE700][000001B015844200 49] Android_Adreno5xx_Low, [000001B01481C100][000001B01584C380 49] Android_Adreno5xx, [000001B0147CDF00][000001B015850500 49] Android_Adreno6xx, [000001B01481DA00][000001B01585C680 49] Android_Adreno6xx_Vulkan, [000001B0147CE300][000001B015860800 49] Android_Mali_T6xx, [000001B01481CF00][000001B015864980 49] Android_Mali_T7xx, [000001B0147CE100][000001B015868B00 49] Android_Mali_T8xx, [000001B01481DD00][000001B01586CC80 49] Android_Mali_G71, [000001B0147CC700][000001B015870E00 49] Android_Mali_G72, [000001B01481F400][000001B015874F80 49] Android_Mali_G72_Vulkan, [000001B0147CED00][000001B015879100 49] Android_Mali_G76, [000001B01481D400][000001B01587D280 49] Android_Mali_G76_Vulkan, [000001B0147CF600][000001B015899400 49] Android_Mali_G77, [000001B01481D800][000001B01589D580 49] Android_Mali_G77_Vulkan, [000001B0147CD100][000001B0158A1700 49] Android_Vulkan_SM5, [000001B01481EA00][000001B0158A5880 49] Android_PowerVR_G6xxx, [000001B0147CEF00][000001B0158399C0 49] Android_PowerVR_GT7xxx, [000001B01481FB00][000001B0158A9B00 49] Android_PowerVR_GE8xxx, [000001B0147CCF00][000001B0158ADC40 49] Android_PowerVR_GM9xxx, [000001B01481E900][000001B0158D4100 49] Android_PowerVR_GM9xxx_Vulkan, [000001B0147CD600][000001B0158D8280 49] Android_TegraK1, [000001B01481F100][000001B0158DC400 49] Android_Unknown_Vulkan, [000001B0147CF300][000001B0158E0580 49] Lumin, [000001B01481FA00][000001B0158E4700 49] Lumin_Desktop, [000001B0147CD900][000001B0158E8880 49] HoloLens, 
[2021.04.30-17.28.49:021][  0]LogMeshReduction: Using QuadricMeshReduction for automatic static mesh reduction
[2021.04.30-17.28.49:021][  0]LogMeshReduction: Using SimplygonMeshReduction for automatic skeletal mesh reduction
[2021.04.30-17.28.49:021][  0]LogMeshReduction: Using ProxyLODMeshReduction for automatic mesh merging
[2021.04.30-17.28.49:021][  0]LogMeshReduction: No distributed automatic mesh merging module available
[2021.04.30-17.28.49:022][  0]LogMeshMerging: No distributed automatic mesh merging module available
[2021.04.30-17.28.49:104][  0]LogNetVersion: TopDown 1.0.0, NetCL: 14830424, EngineNetVer: 16, GameNetVer: 0 (Checksum: 2345871418)
[2021.04.30-17.28.49:536][  0]LogHMD: PokeAHoleMaterial loaded successfully
[2021.04.30-17.28.49:570][  0]LogPackageLocalizationCache: Processed 24 localized package path(s) for 1 prioritized culture(s) in 0.033340 seconds
[2021.04.30-17.28.49:576][  0]LogUObjectArray: 16831 objects as part of root set at end of initial load.
[2021.04.30-17.28.49:576][  0]LogUObjectAllocator: 4209728 out of 0 bytes used by permanent object pool.
[2021.04.30-17.28.49:576][  0]LogUObjectArray: CloseDisregardForGC: 0/0 objects in disregard for GC pool
[2021.04.30-17.28.49:855][  0]LogPython: Using Python 3.7.7
[2021.04.30-17.28.50:689][  0]LogUdpMessaging: Initializing bridge on interface 0.0.0.0:0 to multicast group 230.0.0.1:6666.
[2021.04.30-17.28.50:701][  0]LogTcpMessaging: Initializing TcpMessaging bridge
[2021.04.30-17.28.50:905][  0]SourceControl: Source control is disabled
[2021.04.30-17.28.50:905][  0]SourceControl: Source control is disabled
[2021.04.30-17.28.50:910][  0]SourceControl: Source control is disabled
[2021.04.30-17.28.50:914][  0]SourceControl: Source control is disabled
[2021.04.30-17.28.50:920][  0]SourceControl: Source control is disabled
[2021.04.30-17.28.50:923][  0]LogUProjectInfo: Found projects:
[2021.04.30-17.28.50:933][  0]LogVSAccessor: Display: Unable to create Visual Studio setup instance: 80040154
[2021.04.30-17.28.50:934][  0]LogVSAccessor: Display: Unable to create Visual Studio setup instance: 80040154
[2021.04.30-17.28.51:153][  0]LogAndroidPermission: UAndroidPermissionCallbackProxy::GetInstance
[2021.04.30-17.28.51:177][  0]LogAudioCaptureCore: Display: No Audio Capture implementations found. Audio input will be silent.
[2021.04.30-17.28.51:177][  0]LogAudioCaptureCore: Display: No Audio Capture implementations found. Audio input will be silent.
[2021.04.30-17.28.51:361][  0]LogOcInput: OculusInput pre-init called
[2021.04.30-17.28.51:374][  0]LogWindows: Failed to load 'OVRPlugin.dll' (GetLastError=126)
[2021.04.30-17.28.51:375][  0]LogWindows: File 'OVRPlugin.dll' does not exist
[2021.04.30-17.28.51:383][  0]LogCollectionManager: Loaded 0 collections in 0.001951 seconds
[2021.04.30-17.28.51:393][  0]LogFileCache: Scanning file cache for directory 'D:/Projects/TopDown/Saved/Collections/' took 0.00s
[2021.04.30-17.28.51:393][  0]LogFileCache: Scanning file cache for directory 'D:/Projects/TopDown/Content/Developers/EDELVE7S/Collections/' took 0.00s
[2021.04.30-17.28.51:393][  0]LogFileCache: Scanning file cache for directory 'D:/Projects/TopDown/Content/Collections/' took 0.00s
[2021.04.30-17.28.51:720][  0]LogEngine: Initializing Engine...
[2021.04.30-17.28.51:721][  0]LogHMD: Failed to initialize OpenVR with code 110
[2021.04.30-17.28.51:721][  0]LogMagicLeap: Warning: VR disabled because ZI is not enabled.  To enable, in the editor, Edit -> Project Settings -> Plugins -> Magic Leap Plugin -> Enable Zero Iteration
[2021.04.30-17.28.51:722][  0]LogStats: UGameplayTagsManager::InitializeManager -  0.000 s
[2021.04.30-17.28.51:830][  0]LogInit: Initializing FReadOnlyCVARCache
[2021.04.30-17.28.51:842][  0]LogAIModule: Creating AISystem for world Untitled
[2021.04.30-17.28.51:853][  0]LogAudio: Display: Initializing Audio Device Manager...
[2021.04.30-17.28.51:857][  0]LogAudio: Display: Audio Device Manager Initialized
[2021.04.30-17.28.51:857][  0]LogAudio: Display: Creating Audio Device:                 Id: 1, Scope: Shared, Realtime: True
[2021.04.30-17.28.51:857][  0]LogAudioMixer: Display: Audio Mixer Platform Settings:
[2021.04.30-17.28.51:857][  0]LogAudioMixer: Display: 	Sample Rate:						  48000
[2021.04.30-17.28.51:857][  0]LogAudioMixer: Display: 	Callback Buffer Frame Size Requested: 1024
[2021.04.30-17.28.51:857][  0]LogAudioMixer: Display: 	Callback Buffer Frame Size To Use:	  1024
[2021.04.30-17.28.51:857][  0]LogAudioMixer: Display: 	Number of buffers to queue:			  2
[2021.04.30-17.28.51:857][  0]LogAudioMixer: Display: 	Max Channels (voices):				  32
[2021.04.30-17.28.51:857][  0]LogAudioMixer: Display: 	Number of Async Source Workers:		  0
[2021.04.30-17.28.51:857][  0]LogAudio: Display: AudioDevice MaxSources: 32
[2021.04.30-17.28.51:857][  0]LogAudio: Display: Using built-in audio occlusion.
[2021.04.30-17.28.51:857][  0]LogAudioMixer: Display: Initializing audio mixer.
[2021.04.30-17.28.51:868][  0]LogAudioMixer: Display: 0: FrontLeft
[2021.04.30-17.28.51:868][  0]LogAudioMixer: Display: 1: FrontRight
[2021.04.30-17.28.51:904][  0]LogAudioMixer: Display: Using Audio Device Динамики (Realtek High Definition Audio)
[2021.04.30-17.28.51:908][  0]LogAudioMixer: Display: Initializing Sound Submixes...
[2021.04.30-17.28.51:910][  0]LogAudioMixer: Display: Creating Master Submix 'MasterSubmixDefault'
[2021.04.30-17.28.51:910][  0]LogAudioMixer: Display: Creating Master Submix 'MasterReverbSubmixDefault'
[2021.04.30-17.28.51:911][  0]LogAudioMixer: Display: Creating Master Submix 'MasterEQSubmixDefault'
[2021.04.30-17.28.51:911][  0]LogAudioMixer: FMixerPlatformXAudio2::StartAudioStream() called
[2021.04.30-17.28.51:911][  0]LogAudioMixer: Display: Output buffers initialized: Frames=1024, Channels=2, Samples=2048
[2021.04.30-17.28.51:912][  0]LogAudioMixer: Display: Starting AudioMixerPlatformInterface::RunInternal()
[2021.04.30-17.28.51:912][  0]LogAudioMixer: Display: FMixerPlatformXAudio2::SubmitBuffer() called for the first time
[2021.04.30-17.28.51:912][  0]LogInit: FAudioDevice initialized.
[2021.04.30-17.28.51:912][  0]LogAudio: Display: Audio Device (ID: 1) registered with world 'Untitled'.
[2021.04.30-17.28.51:912][  0]LogNetVersion: Set ProjectVersion to 1.0.0.0. Version Checksum will be recalculated on next use.
[2021.04.30-17.28.52:004][  0]LogDerivedDataCache: Saved boot cache 0.09s 77MB C:/Users/EDELVE7S/AppData/Local/UnrealEngine/4.26/DerivedDataCache/Boot.ddc.
[2021.04.30-17.28.52:004][  0]LogInit: Texture streaming: Enabled
[2021.04.30-17.28.52:017][  0]LogAnalytics: Display: [UEEditor.Rocket.Release] APIServer = https://datarouter.ol.epicgames.com/. AppVersion = 4.26.2-15973114+++UE4+Release-4.26
[2021.04.30-17.28.52:021][  0]LogEngineSessionManager: EngineSessionManager initialized
[2021.04.30-17.28.52:021][  0]LogEditorSessionSummary: Verbose: Initializing EditorSessionSummaryWriter for editor session tracking
[2021.04.30-17.28.52:024][  0]LogEditorSessionSummary: EditorSessionSummaryWriter initialized
[2021.04.30-17.28.52:049][  0]LogInit: Transaction tracking system initialized
[2021.04.30-17.28.52:071][  0]BlueprintLog: New page: Editor Load
[2021.04.30-17.28.52:149][  0]LocalizationService: Localization service is disabled
[2021.04.30-17.28.52:172][  0]TimingProfiler: Initialize
[2021.04.30-17.28.52:172][  0]TimingProfiler: OnSessionChanged
[2021.04.30-17.28.52:172][  0]LoadingProfiler: Initialize
[2021.04.30-17.28.52:172][  0]LoadingProfiler: OnSessionChanged
[2021.04.30-17.28.52:172][  0]NetworkingProfiler: Initialize
[2021.04.30-17.28.52:172][  0]NetworkingProfiler: OnSessionChanged
[2021.04.30-17.28.52:172][  0]MemoryProfiler: Initialize
[2021.04.30-17.28.52:172][  0]MemoryProfiler: OnSessionChanged
[2021.04.30-17.28.52:235][  0]LogVSAccessor: Display: Unable to create Visual Studio setup instance: 80040154
[2021.04.30-17.28.52:236][  0]LogVSAccessor: Display: Unable to create Visual Studio setup instance: 80040154
[2021.04.30-17.28.52:315][  0]LogCook: Display: CookSettings for Memory: MemoryMaxUsedVirtual 0MiB, MemoryMaxUsedPhysical 16384MiB, MemoryMinFreeVirtual 0MiB, MemoryMinFreePhysical 1024MiB
[2021.04.30-17.28.52:315][  0]LogCook: Display: Mobile HDR setting 1
[2021.04.30-17.28.52:529][  0]LogFileCache: Scanning file cache for directory 'D:/Projects/TopDown/Content/' took 0.00s
[2021.04.30-17.28.52:678][  0]LogInit: Display: Engine is initialized. Leaving FEngineLoop::Init()
[2021.04.30-17.28.52:681][  0]SourceControl: Source control is disabled
[2021.04.30-17.28.52:681][  0]LogUnrealEdMisc: Loading editor; pre map load, took 10.175
[2021.04.30-17.28.52:681][  0]Cmd: MAP LOAD FILE="../../../../../Projects/TopDown/Content/TopDownBP/Maps/TopDownExampleMap.umap" TEMPLATE=0 SHOWPROGRESS=1 FEATURELEVEL=3
[2021.04.30-17.28.52:682][  0]LightingResults: New page: Lighting Build
[2021.04.30-17.28.52:683][  0]LogWorld: UWorld::CleanupWorld for Untitled, bSessionEnded=true, bCleanupResources=true
[2021.04.30-17.28.52:683][  0]LogSlate: InvalidateAllWidgets triggered.  All widgets were invalidated
[2021.04.30-17.28.52:683][  0]MapCheck: New page: Map Check
[2021.04.30-17.28.52:683][  0]LightingResults: New page: Lighting Build
[2021.04.30-17.28.52:689][  0]LogUObjectHash: Compacting FUObjectHashTables data took   0.87ms
[2021.04.30-17.28.53:181][  0]LogTexture: Display: Building textures: LQ_Lightmap_1_2 (DXT1, 64X64)
[2021.04.30-17.28.53:181][  0]LogTexture: Display: Building textures: SkyOcclusion1_2 (AutoDXT, 64X32)
[2021.04.30-17.28.53:181][  0]LogTexture: Display: Building textures: HQ_Lightmap1_2 (AutoDXT, 64X64)
[2021.04.30-17.28.53:181][  0]LogTexture: Display: Building textures: SkyOcclusion1_1 (AutoDXT, 1024X512)
[2021.04.30-17.28.53:181][  0]LogTexture: Display: Building textures: LQ_Lightmap_1_1 (DXT1, 1024X1024)
[2021.04.30-17.28.53:181][  0]LogTexture: Display: Building textures: HQ_Lightmap1_1 (AutoDXT, 1024X1024)
[2021.04.30-17.28.53:196][  0]LogAudio: Display: Audio Device (ID: 1) registered with world 'TopDownExampleMap'.
[2021.04.30-17.28.53:197][  0]LogAIModule: Creating AISystem for world TopDownExampleMap
[2021.04.30-17.28.53:216][  0]LogPhysics: Warning: Scale for /Game/TopDownBP/Maps/TopDownExampleMap.TopDownExampleMap:PersistentLevel.Floor2.StaticMeshComponent0 has a component set to zero, which will result in a bad body instance. Scale:X=30.000 Y=40.000 Z=0.000
[2021.04.30-17.28.53:216][  0]LogPhysics: Warning: PopulatePhysXGeometryAndTransform(Convex): ConvexElem has invalid transform
[2021.04.30-17.28.53:216][  0]LogPhysics: Warning: ForeachShape(Convex): ScaledElem[0] invalid
[2021.04.30-17.28.53:286][  0]LogEditorServer: Finished looking for orphan Actors (0.000 secs)
[2021.04.30-17.28.53:290][  0]LogNavigationDataBuild: Display:    Building NavData:  Name Default class /Script/NavigationSystem.RecastNavMesh agent radius 35.0.
[2021.04.30-17.28.53:303][  0]LogUObjectHash: Compacting FUObjectHashTables data took   1.12ms
[2021.04.30-17.28.53:308][  0]Cmd: MAP CHECKDEP NOCLEARLOG
[2021.04.30-17.28.53:308][  0]MapCheck: Map check complete: 0 Error(s), 0 Warning(s), took 0,16ms to complete.
[2021.04.30-17.28.53:308][  0]LogFileHelpers: Loading map 'TopDownExampleMap' took 0.627
[2021.04.30-17.28.53:310][  0]LogUnrealEdMisc: Total Editor Startup Time, took 10.804
[2021.04.30-17.28.53:445][  0]LogSlate: Updating window title bar state: overlay mode, drag disabled, window buttons hidden, title bar hidden
[2021.04.30-17.28.53:451][  0]LogSlate: Updating window title bar state: overlay mode, drag disabled, window buttons hidden, title bar hidden
[2021.04.30-17.28.53:457][  0]LogSlate: Updating window title bar state: overlay mode, drag disabled, window buttons hidden, title bar hidden
[2021.04.30-17.28.53:464][  0]LogSlate: Updating window title bar state: overlay mode, drag disabled, window buttons hidden, title bar hidden
[2021.04.30-17.28.53:471][  0]LogPakFile: PakFile PrimaryIndexSize=187
[2021.04.30-17.28.53:471][  0]LogPakFile: PakFile PathHashIndexSize=101
[2021.04.30-17.28.53:471][  0]LogPakFile: PakFile FullDirectoryIndexSize=148
[2021.04.30-17.28.53:471][  0]LogPakFile: OnPakFileMounted2Time == 0.000008
[2021.04.30-17.28.53:472][  0]LogPakFile: PakFile PrimaryIndexSize=189
[2021.04.30-17.28.53:472][  0]LogPakFile: PakFile PathHashIndexSize=101
[2021.04.30-17.28.53:472][  0]LogPakFile: PakFile FullDirectoryIndexSize=152
[2021.04.30-17.28.53:472][  0]LogPakFile: OnPakFileMounted2Time == 0.000009
[2021.04.30-17.28.53:472][  0]LogPakFile: PakFile PrimaryIndexSize=191
[2021.04.30-17.28.53:472][  0]LogPakFile: PakFile PathHashIndexSize=101
[2021.04.30-17.28.53:472][  0]LogPakFile: PakFile FullDirectoryIndexSize=160
[2021.04.30-17.28.53:472][  0]LogPakFile: OnPakFileMounted2Time == 0.000010
[2021.04.30-17.28.53:473][  0]LogPakFile: PakFile PrimaryIndexSize=185
[2021.04.30-17.28.53:473][  0]LogPakFile: PakFile PathHashIndexSize=101
[2021.04.30-17.28.53:473][  0]LogPakFile: PakFile FullDirectoryIndexSize=148
[2021.04.30-17.28.53:473][  0]LogPakFile: OnPakFileMounted2Time == 0.000012
[2021.04.30-17.28.53:473][  0]LogPakFile: PakFile PrimaryIndexSize=190
[2021.04.30-17.28.53:473][  0]LogPakFile: PakFile PathHashIndexSize=101
[2021.04.30-17.28.53:473][  0]LogPakFile: PakFile FullDirectoryIndexSize=154
[2021.04.30-17.28.53:473][  0]LogPakFile: OnPakFileMounted2Time == 0.000013
[2021.04.30-17.28.53:474][  0]LogPakFile: PakFile PrimaryIndexSize=192
[2021.04.30-17.28.53:474][  0]LogPakFile: PakFile PathHashIndexSize=101
[2021.04.30-17.28.53:474][  0]LogPakFile: PakFile FullDirectoryIndexSize=158
[2021.04.30-17.28.53:474][  0]LogPakFile: OnPakFileMounted2Time == 0.000014
[2021.04.30-17.28.53:474][  0]LogPakFile: PakFile PrimaryIndexSize=182
[2021.04.30-17.28.53:474][  0]LogPakFile: PakFile PathHashIndexSize=101
[2021.04.30-17.28.53:474][  0]LogPakFile: PakFile FullDirectoryIndexSize=138
[2021.04.30-17.28.53:474][  0]LogPakFile: OnPakFileMounted2Time == 0.000015
[2021.04.30-17.28.53:475][  0]LogPakFile: PakFile PrimaryIndexSize=184
[2021.04.30-17.28.53:475][  0]LogPakFile: PakFile PathHashIndexSize=101
[2021.04.30-17.28.53:475][  0]LogPakFile: PakFile FullDirectoryIndexSize=142
[2021.04.30-17.28.53:475][  0]LogPakFile: OnPakFileMounted2Time == 0.000016
[2021.04.30-17.28.53:475][  0]LogPakFile: PakFile PrimaryIndexSize=188
[2021.04.30-17.28.53:475][  0]LogPakFile: PakFile PathHashIndexSize=101
[2021.04.30-17.28.53:475][  0]LogPakFile: PakFile FullDirectoryIndexSize=150
[2021.04.30-17.28.53:475][  0]LogPakFile: OnPakFileMounted2Time == 0.000017
[2021.04.30-17.28.53:476][  0]LogPakFile: PakFile PrimaryIndexSize=182
[2021.04.30-17.28.53:476][  0]LogPakFile: PakFile PathHashIndexSize=101
[2021.04.30-17.28.53:476][  0]LogPakFile: PakFile FullDirectoryIndexSize=138
[2021.04.30-17.28.53:476][  0]LogPakFile: OnPakFileMounted2Time == 0.000018
[2021.04.30-17.28.53:476][  0]LogPakFile: PakFile PrimaryIndexSize=184
[2021.04.30-17.28.53:476][  0]LogPakFile: PakFile PathHashIndexSize=101
[2021.04.30-17.28.53:476][  0]LogPakFile: PakFile FullDirectoryIndexSize=142
[2021.04.30-17.28.53:476][  0]LogPakFile: OnPakFileMounted2Time == 0.000019
[2021.04.30-17.28.53:477][  0]LogPakFile: PakFile PrimaryIndexSize=183
[2021.04.30-17.28.53:477][  0]LogPakFile: PakFile PathHashIndexSize=101
[2021.04.30-17.28.53:477][  0]LogPakFile: PakFile FullDirectoryIndexSize=140
[2021.04.30-17.28.53:477][  0]LogPakFile: OnPakFileMounted2Time == 0.000020
[2021.04.30-17.28.53:477][  0]LogPakFile: PakFile PrimaryIndexSize=185
[2021.04.30-17.28.53:477][  0]LogPakFile: PakFile PathHashIndexSize=101
[2021.04.30-17.28.53:477][  0]LogPakFile: PakFile FullDirectoryIndexSize=144
[2021.04.30-17.28.53:477][  0]LogPakFile: OnPakFileMounted2Time == 0.000022
[2021.04.30-17.28.53:478][  0]LogPakFile: PakFile PrimaryIndexSize=188
[2021.04.30-17.28.53:478][  0]LogPakFile: PakFile PathHashIndexSize=101
[2021.04.30-17.28.53:478][  0]LogPakFile: PakFile FullDirectoryIndexSize=150
[2021.04.30-17.28.53:478][  0]LogPakFile: OnPakFileMounted2Time == 0.000023
[2021.04.30-17.28.53:478][  0]LogPakFile: PakFile PrimaryIndexSize=190
[2021.04.30-17.28.53:478][  0]LogPakFile: PakFile PathHashIndexSize=101
[2021.04.30-17.28.53:478][  0]LogPakFile: PakFile FullDirectoryIndexSize=154
[2021.04.30-17.28.53:478][  0]LogPakFile: OnPakFileMounted2Time == 0.000024
[2021.04.30-17.28.53:479][  0]LogPakFile: PakFile PrimaryIndexSize=187
[2021.04.30-17.28.53:479][  0]LogPakFile: PakFile PathHashIndexSize=101
[2021.04.30-17.28.53:479][  0]LogPakFile: PakFile FullDirectoryIndexSize=148
[2021.04.30-17.28.53:479][  0]LogPakFile: OnPakFileMounted2Time == 0.000025
[2021.04.30-17.28.53:479][  0]LogPakFile: PakFile PrimaryIndexSize=189
[2021.04.30-17.28.53:479][  0]LogPakFile: PakFile PathHashIndexSize=101
[2021.04.30-17.28.53:479][  0]LogPakFile: PakFile FullDirectoryIndexSize=152
[2021.04.30-17.28.53:479][  0]LogPakFile: OnPakFileMounted2Time == 0.000026
[2021.04.30-17.28.53:480][  0]LogPakFile: PakFile PrimaryIndexSize=183
[2021.04.30-17.28.53:480][  0]LogPakFile: PakFile PathHashIndexSize=101
[2021.04.30-17.28.53:480][  0]LogPakFile: PakFile FullDirectoryIndexSize=140
[2021.04.30-17.28.53:480][  0]LogPakFile: OnPakFileMounted2Time == 0.000028
[2021.04.30-17.28.53:480][  0]LogPakFile: PakFile PrimaryIndexSize=185
[2021.04.30-17.28.53:480][  0]LogPakFile: PakFile PathHashIndexSize=101
[2021.04.30-17.28.53:480][  0]LogPakFile: PakFile FullDirectoryIndexSize=144
[2021.04.30-17.28.53:480][  0]LogPakFile: OnPakFileMounted2Time == 0.000029
[2021.04.30-17.28.53:481][  0]LogPakFile: PakFile PrimaryIndexSize=185
[2021.04.30-17.28.53:481][  0]LogPakFile: PakFile PathHashIndexSize=101
[2021.04.30-17.28.53:481][  0]LogPakFile: PakFile FullDirectoryIndexSize=144
[2021.04.30-17.28.53:481][  0]LogPakFile: OnPakFileMounted2Time == 0.000031
[2021.04.30-17.28.53:481][  0]LogPakFile: PakFile PrimaryIndexSize=187
[2021.04.30-17.28.53:481][  0]LogPakFile: PakFile PathHashIndexSize=101
[2021.04.30-17.28.53:481][  0]LogPakFile: PakFile FullDirectoryIndexSize=148
[2021.04.30-17.28.53:482][  0]LogPakFile: OnPakFileMounted2Time == 0.000032
[2021.04.30-17.28.53:482][  0]LogPakFile: PakFile PrimaryIndexSize=183
[2021.04.30-17.28.53:482][  0]LogPakFile: PakFile PathHashIndexSize=101
[2021.04.30-17.28.53:482][  0]LogPakFile: PakFile FullDirectoryIndexSize=140
[2021.04.30-17.28.53:482][  0]LogPakFile: OnPakFileMounted2Time == 0.000034
[2021.04.30-17.28.53:483][  0]LogPakFile: PakFile PrimaryIndexSize=186
[2021.04.30-17.28.53:483][  0]LogPakFile: PakFile PathHashIndexSize=101
[2021.04.30-17.28.53:483][  0]LogPakFile: PakFile FullDirectoryIndexSize=146
[2021.04.30-17.28.53:483][  0]LogPakFile: OnPakFileMounted2Time == 0.000035
[2021.04.30-17.28.53:483][  0]LogPakFile: PakFile PrimaryIndexSize=188
[2021.04.30-17.28.53:483][  0]LogPakFile: PakFile PathHashIndexSize=101
[2021.04.30-17.28.53:483][  0]LogPakFile: PakFile FullDirectoryIndexSize=150
[2021.04.30-17.28.53:483][  0]LogPakFile: OnPakFileMounted2Time == 0.000036
[2021.04.30-17.28.53:484][  0]LogPakFile: PakFile PrimaryIndexSize=185
[2021.04.30-17.28.53:484][  0]LogPakFile: PakFile PathHashIndexSize=101
[2021.04.30-17.28.53:484][  0]LogPakFile: PakFile FullDirectoryIndexSize=144
[2021.04.30-17.28.53:484][  0]LogPakFile: OnPakFileMounted2Time == 0.000037
[2021.04.30-17.28.53:484][  0]LogPakFile: PakFile PrimaryIndexSize=192
[2021.04.30-17.28.53:484][  0]LogPakFile: PakFile PathHashIndexSize=101
[2021.04.30-17.28.53:484][  0]LogPakFile: PakFile FullDirectoryIndexSize=158
[2021.04.30-17.28.53:484][  0]LogPakFile: OnPakFileMounted2Time == 0.000038
[2021.04.30-17.28.53:645][  0]LogSlate: Took 0.000208 seconds to synchronously load lazily loaded font '../../../Engine/Content/Slate/Fonts/Roboto-Regular.ttf' (155K)
[2021.04.30-17.28.53:648][  0]LogSlate: Took 0.000133 seconds to synchronously load lazily loaded font '../../../Engine/Content/Slate/Fonts/Roboto-Bold.ttf' (160K)
[2021.04.30-17.28.53:652][  0]LogSlate: Took 0.000146 seconds to synchronously load lazily loaded font '../../../Engine/Content/Editor/Slate/Fonts/FontAwesome.ttf' (139K)
[2021.04.30-17.28.53:749][  0]LogRenderer: Reallocating scene render targets to support 1196x596 Format 10 NumSamples 1 (Frame:1).
[2021.04.30-17.28.53:940][  0]LogInput: Warning: Action SetDestination uses invalid key OculusGo_Left_Trigger_Click.
[2021.04.30-17.28.53:940][  0]LogInput: Warning: Action ResetVR uses invalid key OculusGo_Left_Back_Click.
[2021.04.30-17.28.53:940][  0]LogInput: Warning: Use -RemoveInvalidKeys to remove instances of these keys from the action mapping.
[2021.04.30-17.28.53:940][  0]LogLoad: (Engine Initialization) Total time: 11.43 seconds
[2021.04.30-17.28.53:940][  0]LogLoad: (Engine Initialization) Total Blueprint compile time: 0.00 seconds
[2021.04.30-17.28.53:940][  0]LogInit: First time updating LLM stats...
[2021.04.30-17.28.53:979][  0]LogAssetRegistry: Asset discovery search completed in 5.2821 seconds
[2021.04.30-17.28.53:981][  0]LogCollectionManager: Fixed up redirectors for 0 collections in 0.000004 seconds (updated 0 objects)
[2021.04.30-17.28.54:020][  0]LogContentStreaming: Texture pool size now 3000 MB
[2021.04.30-17.28.54:135][  3]LogNativeClassHierarchy: Verbose: Native class hierarchy populated in 0.0139 seconds. Added 3628 classes and 872 folders.
[2021.04.30-17.28.54:182][  3]LogSlate: Took 0.000196 seconds to synchronously load lazily loaded font '../../../Engine/Content/Slate/Fonts/Roboto-Light.ttf' (167K)
[2021.04.30-17.28.54:954][ 60]LogSlate: Took 0.000143 seconds to synchronously load lazily loaded font '../../../Engine/Content/Slate/Fonts/Roboto-Light.ttf' (167K)
[2021.04.30-17.28.58:227][314]LogTemp: Repeating last play command: Selected Viewport
[2021.04.30-17.28.58:232][314]LogPlayLevel: PlayLevel: No blueprints needed recompiling
[2021.04.30-17.28.58:233][314]PIE: New page: PIE session: TopDownExampleMap (30 апр. 2021 г., 23:28:58)
[2021.04.30-17.28.58:234][314]LogOnline: OSS: Creating online subsystem instance for: NULL
[2021.04.30-17.28.58:235][314]LogOnline: OSS: TryLoadSubsystemAndSetDefault: Loaded subsystem for module [NULL]
[2021.04.30-17.28.58:235][314]LogPlayLevel: Creating play world package: /Game/TopDownBP/Maps/UEDPIE_0_TopDownExampleMap
[2021.04.30-17.28.58:260][314]LogPlayLevel: PIE: StaticDuplicateObject took: (0.025247s)
[2021.04.30-17.28.58:261][314]LogAIModule: Creating AISystem for world TopDownExampleMap
[2021.04.30-17.28.58:261][314]LogPlayLevel: PIE: World Init took: (0.001104s)
[2021.04.30-17.28.58:261][314]LogPlayLevel: PIE: Created PIE world by copying editor world from /Game/TopDownBP/Maps/TopDownExampleMap.TopDownExampleMap to /Game/TopDownBP/Maps/UEDPIE_0_TopDownExampleMap.TopDownExampleMap (0.026508s)
[2021.04.30-17.28.58:267][314]LogUObjectHash: Compacting FUObjectHashTables data took   0.84ms
[2021.04.30-17.28.58:268][314]LogAudio: Display: Creating Audio Device:                 Id: 2, Scope: Unique, Realtime: True
[2021.04.30-17.28.58:268][314]LogAudioMixer: Display: Audio Mixer Platform Settings:
[2021.04.30-17.28.58:268][314]LogAudioMixer: Display: 	Sample Rate:						  48000
[2021.04.30-17.28.58:268][314]LogAudioMixer: Display: 	Callback Buffer Frame Size Requested: 1024
[2021.04.30-17.28.58:268][314]LogAudioMixer: Display: 	Callback Buffer Frame Size To Use:	  1024
[2021.04.30-17.28.58:268][314]LogAudioMixer: Display: 	Number of buffers to queue:			  2
[2021.04.30-17.28.58:268][314]LogAudioMixer: Display: 	Max Channels (voices):				  32
[2021.04.30-17.28.58:268][314]LogAudioMixer: Display: 	Number of Async Source Workers:		  0
[2021.04.30-17.28.58:268][314]LogAudio: Display: AudioDevice MaxSources: 32
[2021.04.30-17.28.58:269][314]LogAudio: Display: Using built-in audio occlusion.
[2021.04.30-17.28.58:269][314]LogAudioMixer: Display: Initializing audio mixer.
[2021.04.30-17.28.58:272][314]LogAudioMixer: Display: 0: FrontLeft
[2021.04.30-17.28.58:272][314]LogAudioMixer: Display: 1: FrontRight
[2021.04.30-17.28.58:290][314]LogAudioMixer: Display: Using Audio Device Динамики (Realtek High Definition Audio)
[2021.04.30-17.28.58:290][314]LogAudioMixer: Display: Initializing Sound Submixes...
[2021.04.30-17.28.58:290][314]LogAudioMixer: Display: Creating Master Submix 'MasterSubmixDefault'
[2021.04.30-17.28.58:290][314]LogAudioMixer: Display: Creating Master Submix 'MasterReverbSubmixDefault'
[2021.04.30-17.28.58:291][314]LogAudioMixer: Display: Creating Master Submix 'MasterEQSubmixDefault'
[2021.04.30-17.28.58:291][314]LogAudioMixer: FMixerPlatformXAudio2::StartAudioStream() called
[2021.04.30-17.28.58:291][314]LogAudioMixer: Display: Output buffers initialized: Frames=1024, Channels=2, Samples=2048
[2021.04.30-17.28.58:305][314]LogAudioMixer: Display: Starting AudioMixerPlatformInterface::RunInternal()
[2021.04.30-17.28.58:305][314]LogAudioMixer: Display: FMixerPlatformXAudio2::SubmitBuffer() called for the first time
[2021.04.30-17.28.58:305][314]LogInit: FAudioDevice initialized.
[2021.04.30-17.28.58:305][314]LogAudio: Display: Audio Device (ID: 2) registered with world 'TopDownExampleMap'.
[2021.04.30-17.28.58:318][314]LogLinker: Warning: Failed to load '/Game/TopDownBP/Blueprints/TopDownGameMode': Can't find file.
[2021.04.30-17.28.58:318][314]LogLinker: Warning: Failed to load '/Game/TopDownBP/Blueprints/TopDownGameMode': Can't find file.
[2021.04.30-17.28.58:319][314]LogUObjectGlobals: Warning: Failed to find object 'Class /Game/TopDownBP/Blueprints/TopDownGameMode.TopDownGameMode_C'
[2021.04.30-17.28.58:319][314]LogLoad: Game class is 'GameModeBase'
[2021.04.30-17.28.58:334][314]LogPhysics: Warning: Scale for /Game/TopDownBP/Maps/UEDPIE_0_TopDownExampleMap.TopDownExampleMap:PersistentLevel.Floor2.StaticMeshComponent0 has a component set to zero, which will result in a bad body instance. Scale:X=30.000 Y=40.000 Z=0.000
[2021.04.30-17.28.58:334][314]LogPhysics: Warning: PopulatePhysXGeometryAndTransform(Convex): ConvexElem has invalid transform
[2021.04.30-17.28.58:334][314]LogPhysics: Warning: ForeachShape(Convex): ScaledElem[0] invalid
[2021.04.30-17.28.58:334][314]LogWorld: Bringing World /Game/TopDownBP/Maps/UEDPIE_0_TopDownExampleMap.TopDownExampleMap up for play (max tick rate 0) at 2021.04.30-20.28.58
[2021.04.30-17.28.58:335][314]LogWorld: Bringing up level for play took: 0.015382
[2021.04.30-17.28.58:335][314]LogOnline: OSS: Creating online subsystem instance for: :Context_1
[2021.04.30-17.28.58:338][314]LogNativeClassHierarchy: Verbose: Native class hierarchy updated for 'MovieSceneCapture' in 0.0004 seconds. Added 20 classes and 0 folders.
[2021.04.30-17.28.58:339][314]PIE: Server logged in
[2021.04.30-17.28.58:340][314]PIE: Play in editor total start time 0,109 seconds.
[2021.04.30-17.29.06:334][693]LogSlate: Updating window title bar state: overlay mode, drag disabled, window buttons hidden, title bar hidden
[2021.04.30-17.29.06:334][693]LogWorld: BeginTearingDown for /Game/TopDownBP/Maps/UEDPIE_0_TopDownExampleMap
[2021.04.30-17.29.06:334][693]LogWorld: UWorld::CleanupWorld for TopDownExampleMap, bSessionEnded=true, bCleanupResources=true
[2021.04.30-17.29.06:336][693]LogSlate: InvalidateAllWidgets triggered.  All widgets were invalidated
[2021.04.30-17.29.06:344][693]LogPlayLevel: Display: Shutting down PIE online subsystems
[2021.04.30-17.29.06:346][693]LogSlate: InvalidateAllWidgets triggered.  All widgets were invalidated
[2021.04.30-17.29.06:351][693]LogAudio: Display: Audio Device unregistered from world 'None'.
[2021.04.30-17.29.06:351][693]LogAudioMixer: FMixerPlatformXAudio2::StopAudioStream() called
[2021.04.30-17.29.06:352][693]LogAudioMixer: FMixerPlatformXAudio2::StopAudioStream() called
[2021.04.30-17.29.06:367][693]LogSlate: Updating window title bar state: overlay mode, drag disabled, window buttons hidden, title bar hidden
[2021.04.30-17.29.06:370][693]LogUObjectHash: Compacting FUObjectHashTables data took   0.72ms
[2021.04.30-17.29.06:436][695]LogPlayLevel: Display: Destroying online subsystem :Context_1
[2021.04.30-17.29.07:944][767]LogEditorViewport: Clicking on Actor (LMB): BP_Pawn_C (BP_Pawn)
[2021.04.30-17.29.18:008][191]LogAssetEditorSubsystem: Opening Asset editor for Blueprint /Game/Actors/BP_Ball.BP_Ball
[2021.04.30-17.29.18:211][191]LogNativeClassHierarchy: Verbose: Native class hierarchy updated for 'BlueprintGraph' in 0.0006 seconds. Added 126 classes and 0 folders.
[2021.04.30-17.29.19:201][191]LogSlate: Took 0.000203 seconds to synchronously load lazily loaded font '../../../Engine/Content/Slate/Fonts/Roboto-BoldCondensed.ttf' (158K)
[2021.04.30-17.29.19:274][192]LogSlate: Took 0.000236 seconds to synchronously load lazily loaded font '../../../Engine/Content/Slate/Fonts/Roboto-Italic.ttf' (157K)
[2021.04.30-17.29.20:473][242]LogSlate: Window 'BP_Ball' being destroyed
[2021.04.30-17.29.21:974][341]LogAssetEditorSubsystem: Opening Asset editor for Blueprint /Game/Actors/BP_Blocks.BP_Blocks
[2021.04.30-17.29.24:424][494]LogAssetEditorSubsystem: Opening Asset editor for Blueprint /Game/Actors/BP_Pawn.BP_Pawn
[2021.04.30-17.29.41:536][ 93]MapCheck: New page: Map Check
[2021.04.30-17.29.41:549][ 93]LightingResults: New page: Lighting Build - 30 апр. 2021 г., 23:29:41
[2021.04.30-17.29.41:553][ 93]LogUnrealMath: Error: FMatrix::InverseFast(), trying to invert a non-invertible matrix, this results in NaNs! Use Inverse() instead.
[2021.04.30-17.29.41:577][ 93]LogOutputDevice: Warning: 

Script Stack (0 frames):

[2021.04.30-17.29.42:099][ 93]LogStats: FPlatformStackWalk::StackWalkAndDump -  0.522 s
[2021.04.30-17.29.42:099][ 93]LogOutputDevice: Error: === Handled ensure: ===
[2021.04.30-17.29.42:099][ 93]LogOutputDevice: Error: 
[2021.04.30-17.29.42:099][ 93]LogOutputDevice: Error: Ensure condition failed: false [File:D:/Build/++UE4/Sync/Engine/Source/Runtime/Core/Private/Math/Matrix.cpp] [Line: 8]
[2021.04.30-17.29.42:099][ 93]LogOutputDevice: Error: FMatrix::InverseFast(), trying to invert a non-invertible matrix, this results in NaNs! Use Inverse() instead.
[2021.04.30-17.29.42:099][ 93]LogOutputDevice: Error: Stack: 
[2021.04.30-17.29.42:099][ 93]LogOutputDevice: Error: [Callstack] 0x00007ffa7b3cb756 UE4Editor-Core.dll!UnknownFunction []
[2021.04.30-17.29.42:099][ 93]LogOutputDevice: Error: [Callstack] 0x00007ffa7ad0c5fe UE4Editor-Core.dll!UnknownFunction []
[2021.04.30-17.29.42:099][ 93]LogOutputDevice: Error: [Callstack] 0x00007ffa77bbd64b UE4Editor-Engine.dll!UnknownFunction []
[2021.04.30-17.29.42:099][ 93]LogOutputDevice: Error: [Callstack] 0x00007ffa78ced1af UE4Editor-Engine.dll!UnknownFunction []
[2021.04.30-17.29.42:099][ 93]LogOutputDevice: Error: [Callstack] 0x00007ffa78cf5534 UE4Editor-Engine.dll!UnknownFunction []
[2021.04.30-17.29.42:099][ 93]LogOutputDevice: Error: [Callstack] 0x00007ffa78d19d5e UE4Editor-Engine.dll!UnknownFunction []
[2021.04.30-17.29.42:099][ 93]LogOutputDevice: Error: [Callstack] 0x00007ffa7620d9d1 UE4Editor-UnrealEd.dll!UnknownFunction []
[2021.04.30-17.29.42:099][ 93]LogOutputDevice: Error: [Callstack] 0x00007ffa761bec7b UE4Editor-UnrealEd.dll!UnknownFunction []
[2021.04.30-17.29.42:099][ 93]LogOutputDevice: Error: [Callstack] 0x00007ffa761e9f28 UE4Editor-UnrealEd.dll!UnknownFunction []
[2021.04.30-17.29.42:099][ 93]LogOutputDevice: Error: [Callstack] 0x00007ffa761bf8dd UE4Editor-UnrealEd.dll!UnknownFunction []
[2021.04.30-17.29.42:099][ 93]LogOutputDevice: Error: [Callstack] 0x00007ffa75a5d35b UE4Editor-UnrealEd.dll!UnknownFunction []
[2021.04.30-17.29.42:099][ 93]LogOutputDevice: Error: [Callstack] 0x00007ffa6c72438a UE4Editor-LevelEditor.dll!UnknownFunction []
[2021.04.30-17.29.42:099][ 93]LogOutputDevice: Error: [Callstack] 0x00007ffa6c745b67 UE4Editor-LevelEditor.dll!UnknownFunction []
[2021.04.30-17.29.42:099][ 93]LogOutputDevice: Error: [Callstack] 0x00007ffa772f0088 UE4Editor-Slate.dll!UnknownFunction []
[2021.04.30-17.29.42:099][ 93]LogOutputDevice: Error: [Callstack] 0x00007ffa773dede1 UE4Editor-Slate.dll!UnknownFunction []
[2021.04.30-17.29.42:099][ 93]LogOutputDevice: Error: [Callstack] 0x00007ffa773e5600 UE4Editor-Slate.dll!UnknownFunction []
[2021.04.30-17.29.42:099][ 93]LogOutputDevice: Error: [Callstack] 0x00007ffa773bb807 UE4Editor-Slate.dll!UnknownFunction []
[2021.04.30-17.29.42:099][ 93]LogOutputDevice: Error: [Callstack] 0x00007ffa7745859e UE4Editor-Slate.dll!UnknownFunction []
[2021.04.30-17.29.42:099][ 93]LogOutputDevice: Error: [Callstack] 0x00007ffa7747071e UE4Editor-Slate.dll!UnknownFunction []
[2021.04.30-17.29.42:099][ 93]LogOutputDevice: Error: [Callstack] 0x00007ffa773e6d75 UE4Editor-Slate.dll!UnknownFunction []
[2021.04.30-17.29.42:099][ 93]LogOutputDevice: Error: [Callstack] 0x00007ffa772b46be UE4Editor-Slate.dll!UnknownFunction []
[2021.04.30-17.29.42:099][ 93]LogOutputDevice: Error: [Callstack] 0x00007ffa77337f14 UE4Editor-Slate.dll!UnknownFunction []
[2021.04.30-17.29.42:099][ 93]LogOutputDevice: Error: [Callstack] 0x00007ffa77320337 UE4Editor-Slate.dll!UnknownFunction []
[2021.04.30-17.29.42:099][ 93]LogOutputDevice: Error: [Callstack] 0x00007ffa77313632 UE4Editor-Slate.dll!UnknownFunction []
[2021.04.30-17.29.42:099][ 93]LogOutputDevice: Error: [Callstack] 0x00007ffa8774bcb5 UE4Editor-ApplicationCore.dll!UnknownFunction []
[2021.04.30-17.29.42:099][ 93]LogOutputDevice: Error: [Callstack] 0x00007ffa87739197 UE4Editor-ApplicationCore.dll!UnknownFunction []
[2021.04.30-17.29.42:099][ 93]LogOutputDevice: Error: [Callstack] 0x00007ffa8774e389 UE4Editor-ApplicationCore.dll!UnknownFunction []
[2021.04.30-17.29.42:099][ 93]LogOutputDevice: Error: [Callstack] 0x00007ffa87734310 UE4Editor-ApplicationCore.dll!UnknownFunction []
[2021.04.30-17.29.42:099][ 93]LogOutputDevice: Error: [Callstack] 0x00007ffac8745b6d USER32.dll!UnknownFunction []
[2021.04.30-17.29.42:099][ 93]LogOutputDevice: Error: [Callstack] 0x00007ffac8745562 USER32.dll!UnknownFunction []
[2021.04.30-17.29.42:099][ 93]LogOutputDevice: Error: [Callstack] 0x00007ffa8774f914 UE4Editor-ApplicationCore.dll!UnknownFunction []
[2021.04.30-17.29.42:099][ 93]LogOutputDevice: Error: [Callstack] 0x00007ff7d6428848 UE4Editor.exe!UnknownFunction []
[2021.04.30-17.29.42:099][ 93]LogOutputDevice: Error: [Callstack] 0x00007ff7d644117c UE4Editor.exe!UnknownFunction []
[2021.04.30-17.29.42:099][ 93]LogOutputDevice: Error: [Callstack] 0x00007ff7d644125a UE4Editor.exe!UnknownFunction []
[2021.04.30-17.29.42:099][ 93]LogOutputDevice: Error: [Callstack] 0x00007ff7d64552bd UE4Editor.exe!UnknownFunction []
[2021.04.30-17.29.42:099][ 93]LogOutputDevice: Error: [Callstack] 0x00007ff7d6457fea UE4Editor.exe!UnknownFunction []
[2021.04.30-17.29.42:099][ 93]LogOutputDevice: Error: [Callstack] 0x00007ffac9147bd4 KERNEL32.DLL!UnknownFunction []
[2021.04.30-17.29.42:100][ 93]LogOutputDevice: Error: [Callstack] 0x00007ffac9a0ced1 ntdll.dll!UnknownFunction []
[2021.04.30-17.29.42:100][ 93]LogOutputDevice: Error: 
